G04*
G04 #@! TF.GenerationSoftware,Altium Limited,Altium Designer,21.1.1 (26)*
G04*
G04 Layer_Physical_Order=1*
G04 Layer_Color=255*
%FSLAX25Y25*%
%MOIN*%
G70*
G04*
G04 #@! TF.SameCoordinates,A0B2FF02-B728-4D00-99DE-4778D014F070*
G04*
G04*
G04 #@! TF.FilePolarity,Positive*
G04*
G01*
G75*
%ADD11C,0.01000*%
%ADD15C,0.00500*%
%ADD16C,0.00787*%
%ADD17C,0.00591*%
%ADD20R,0.03543X0.03937*%
%ADD21R,0.12598X0.03937*%
%ADD22R,0.11811X0.10236*%
%ADD23R,0.11811X0.14173*%
%ADD24R,0.07498X0.02236*%
G04:AMPARAMS|DCode=25|XSize=74.98mil|YSize=22.36mil|CornerRadius=11.18mil|HoleSize=0mil|Usage=FLASHONLY|Rotation=0.000|XOffset=0mil|YOffset=0mil|HoleType=Round|Shape=RoundedRectangle|*
%AMROUNDEDRECTD25*
21,1,0.07498,0.00000,0,0,0.0*
21,1,0.05262,0.02236,0,0,0.0*
1,1,0.02236,0.02631,0.00000*
1,1,0.02236,-0.02631,0.00000*
1,1,0.02236,-0.02631,0.00000*
1,1,0.02236,0.02631,0.00000*
%
%ADD25ROUNDEDRECTD25*%
%ADD26R,0.07480X0.04331*%
%ADD27R,0.03740X0.03543*%
%ADD28O,0.06890X0.02362*%
%ADD29R,0.04764X0.07165*%
%ADD30R,0.03150X0.03150*%
%ADD31R,0.02756X0.03543*%
%ADD32R,0.06102X0.02362*%
G04:AMPARAMS|DCode=34|XSize=61.81mil|YSize=16.14mil|CornerRadius=4.04mil|HoleSize=0mil|Usage=FLASHONLY|Rotation=0.000|XOffset=0mil|YOffset=0mil|HoleType=Round|Shape=RoundedRectangle|*
%AMROUNDEDRECTD34*
21,1,0.06181,0.00807,0,0,0.0*
21,1,0.05374,0.01614,0,0,0.0*
1,1,0.00807,0.02687,-0.00404*
1,1,0.00807,-0.02687,-0.00404*
1,1,0.00807,-0.02687,0.00404*
1,1,0.00807,0.02687,0.00404*
%
%ADD34ROUNDEDRECTD34*%
%ADD35R,0.03937X0.03543*%
%ADD36R,0.03543X0.02756*%
%ADD37R,0.03150X0.03150*%
%ADD55C,0.03937*%
%ADD56R,0.02756X0.02362*%
%ADD57C,0.07000*%
%ADD58C,0.06024*%
%ADD59R,0.06024X0.06024*%
%ADD60C,0.06299*%
%ADD61R,0.06299X0.06299*%
%ADD62C,0.02362*%
%ADD63C,0.01575*%
G36*
X187877Y392681D02*
X189581Y392342D01*
X191187Y391677D01*
X192632Y390711D01*
X193861Y389483D01*
X194827Y388037D01*
X195492Y386432D01*
X195831Y384727D01*
Y383858D01*
Y9843D01*
Y8974D01*
X195492Y7269D01*
X194827Y5663D01*
X193861Y4218D01*
X192632Y2989D01*
X191187Y2024D01*
X189581Y1359D01*
X187877Y1020D01*
X8974D01*
X7269Y1359D01*
X5663Y2024D01*
X4218Y2989D01*
X2989Y4218D01*
X2024Y5663D01*
X1359Y7269D01*
X1020Y8974D01*
Y9843D01*
Y204095D01*
X1181Y204527D01*
X1519Y204527D01*
X3437D01*
Y207087D01*
X4437D01*
Y204527D01*
X6693D01*
X6693Y204527D01*
X7087D01*
Y204527D01*
X7193Y204527D01*
X9343D01*
Y207087D01*
X10343D01*
Y204527D01*
X12598D01*
Y204527D01*
X12992D01*
Y204527D01*
X15248D01*
Y207087D01*
X15748D01*
Y207587D01*
X18504D01*
Y209519D01*
X19321D01*
X19783Y209429D01*
X19783Y209019D01*
Y207961D01*
X23122D01*
Y209429D01*
X20905D01*
X20828Y209535D01*
X20716Y209929D01*
X21279Y210492D01*
X27461D01*
Y214256D01*
X27508Y214265D01*
X27851Y214494D01*
X28458Y215102D01*
X28688Y215445D01*
X28768Y215850D01*
Y219071D01*
X28688Y219476D01*
X28458Y219819D01*
X27481Y220797D01*
Y221530D01*
X27461Y221632D01*
Y223884D01*
X41043D01*
Y220492D01*
X48720D01*
Y224429D01*
X46194D01*
Y225834D01*
X46541Y226181D01*
X49016D01*
Y227189D01*
X49361Y227306D01*
X49803Y226996D01*
Y221654D01*
X49803D01*
Y221260D01*
X49803D01*
Y218518D01*
X48720D01*
Y219429D01*
X41043D01*
Y215492D01*
X48720D01*
Y216403D01*
X49803D01*
Y215748D01*
X49803D01*
Y215354D01*
X49803D01*
Y213518D01*
X48720D01*
Y214429D01*
X41043D01*
Y210492D01*
X48720D01*
Y211403D01*
X49803D01*
Y209842D01*
X49803Y209842D01*
Y209449D01*
X49803D01*
X49803Y209343D01*
Y208518D01*
X48720D01*
Y209429D01*
X41043D01*
Y205492D01*
X48720D01*
Y206403D01*
X49803D01*
Y203937D01*
X54703D01*
Y203662D01*
X54787Y203239D01*
X55026Y202881D01*
X59771Y198137D01*
X60129Y197898D01*
X60551Y197813D01*
X65441D01*
X65748Y197441D01*
X65748Y197313D01*
Y192323D01*
X71260D01*
Y193678D01*
X73032D01*
Y192323D01*
X77215D01*
X77406Y191861D01*
X76687Y191142D01*
X73032D01*
Y186024D01*
X74683D01*
Y178543D01*
X73032D01*
Y174230D01*
X72312D01*
X71260Y175281D01*
Y178543D01*
X69608D01*
Y186024D01*
X71260D01*
Y191142D01*
X65748D01*
Y186024D01*
X67400D01*
Y178543D01*
X65748D01*
Y173425D01*
X69403D01*
X70123Y172706D01*
X69931Y172244D01*
X69004D01*
Y170185D01*
X71260D01*
Y171196D01*
X71760Y171606D01*
X71768Y171605D01*
X73032D01*
Y170185D01*
X78543D01*
Y171605D01*
X80315D01*
Y170185D01*
X85827D01*
Y171654D01*
X86078Y171704D01*
X86504Y171989D01*
X87884Y173369D01*
X88427Y173205D01*
X88500Y172834D01*
X88935Y172183D01*
X89586Y171748D01*
X90354Y171595D01*
X92118D01*
Y173602D01*
Y175610D01*
X90832D01*
X90624Y176110D01*
X91110Y176595D01*
X94882D01*
X95650Y176748D01*
X96301Y177183D01*
X96736Y177834D01*
X96889Y178602D01*
X96736Y179370D01*
X96301Y180022D01*
X95650Y180457D01*
X94882Y180610D01*
X90354D01*
X89586Y180457D01*
X88935Y180022D01*
X88500Y179370D01*
X88347Y178602D01*
X88500Y177834D01*
X88555Y177752D01*
X86289Y175486D01*
X85827Y175678D01*
Y178543D01*
X84175D01*
Y186024D01*
X85827D01*
Y187498D01*
X88724D01*
X88935Y187183D01*
X89586Y186748D01*
X90354Y186595D01*
X94882D01*
X95418Y186702D01*
X95664Y186241D01*
X95008Y185584D01*
X94882Y185609D01*
X90354D01*
X89586Y185457D01*
X88935Y185022D01*
X88500Y184371D01*
X88347Y183602D01*
X88500Y182834D01*
X88935Y182183D01*
X89586Y181748D01*
X90354Y181595D01*
X94882D01*
X95650Y181748D01*
X96301Y182183D01*
X96736Y182834D01*
X96889Y183602D01*
X96864Y183728D01*
X98566Y185430D01*
X98851Y185856D01*
X98950Y186358D01*
Y189370D01*
X98851Y189872D01*
X98566Y190298D01*
X96204Y192660D01*
X95778Y192945D01*
X95276Y193045D01*
X85827D01*
Y193569D01*
X102385D01*
X107099Y188856D01*
X107048Y188602D01*
X107201Y187834D01*
X107636Y187183D01*
X108287Y186748D01*
X109055Y186595D01*
X113583D01*
X114351Y186748D01*
X115002Y187183D01*
X115437Y187834D01*
X115536Y188330D01*
X115656Y188451D01*
X116339D01*
Y187599D01*
X121457D01*
Y188119D01*
X121628Y188234D01*
X122411D01*
X123135Y188533D01*
X123689Y189087D01*
X123988Y189811D01*
Y190594D01*
X123689Y191317D01*
X123135Y191871D01*
X122411Y192171D01*
X121628D01*
X121045Y191929D01*
X116339D01*
Y191076D01*
X115113D01*
X114611Y190977D01*
X114185Y190692D01*
X114016Y190523D01*
X113583Y190610D01*
X109257D01*
X104057Y195810D01*
X103631Y196095D01*
X103129Y196194D01*
X85827D01*
Y197313D01*
X85827Y197441D01*
X86134Y197813D01*
X107579D01*
X108001Y197898D01*
X108359Y198137D01*
X110300Y200077D01*
X122605D01*
X122681Y199895D01*
X123124Y199452D01*
X123703Y199213D01*
X124329D01*
X124465Y199269D01*
X124880Y198991D01*
Y184709D01*
X122054Y181883D01*
X121815Y181525D01*
X121809Y181496D01*
X117126D01*
Y179915D01*
X115073D01*
X115002Y180022D01*
X114351Y180457D01*
X113583Y180610D01*
X109055D01*
X108287Y180457D01*
X107636Y180022D01*
X107201Y179370D01*
X107048Y178602D01*
X107201Y177834D01*
X107636Y177183D01*
X108287Y176748D01*
X109055Y176595D01*
X113583D01*
X114351Y176748D01*
X115002Y177183D01*
X115073Y177290D01*
X117126D01*
Y175984D01*
X121307D01*
X121337Y175970D01*
X121423Y175675D01*
X121042Y175197D01*
X117126D01*
Y174915D01*
X115073D01*
X115002Y175022D01*
X114351Y175457D01*
X113583Y175610D01*
X109055D01*
X108287Y175457D01*
X107636Y175022D01*
X107201Y174371D01*
X107048Y173602D01*
X107201Y172834D01*
X107636Y172183D01*
X108287Y171748D01*
X109055Y171595D01*
X113583D01*
X114351Y171748D01*
X115002Y172183D01*
X115073Y172290D01*
X117126D01*
Y169685D01*
X122244D01*
Y174163D01*
X122706Y174355D01*
X123425Y173636D01*
Y169685D01*
X126982D01*
X132565Y164102D01*
Y160061D01*
X132150Y159783D01*
X132006Y159843D01*
X131380D01*
X130801Y159603D01*
X130570Y159372D01*
X116732D01*
Y160917D01*
X114173D01*
X111614D01*
Y159945D01*
X111114Y159738D01*
X110433Y160419D01*
Y164173D01*
X105315D01*
Y162521D01*
X103780D01*
X103669Y162937D01*
X103150Y163835D01*
X102417Y164568D01*
X101520Y165086D01*
X100518Y165354D01*
X99482D01*
X98480Y165086D01*
X97583Y164568D01*
X96850Y163835D01*
X96331Y162937D01*
X96063Y161936D01*
Y160899D01*
X96331Y159898D01*
X96547Y159525D01*
X90726Y153705D01*
X90487Y153346D01*
X90403Y152924D01*
Y125394D01*
X89083D01*
Y122835D01*
Y120275D01*
X90403D01*
Y117181D01*
X88790Y115568D01*
X88193Y115668D01*
X88083Y115902D01*
X88118Y115960D01*
X88120Y115963D01*
X88212Y116427D01*
Y117234D01*
X88120Y117699D01*
X87857Y118093D01*
X87463Y118356D01*
X86998Y118449D01*
X84384D01*
Y120275D01*
X85236D01*
Y125394D01*
X84384D01*
Y126088D01*
X84740Y126444D01*
X85040Y127167D01*
Y127951D01*
X84740Y128674D01*
X84186Y129228D01*
X83463Y129527D01*
X82679D01*
X82042Y129263D01*
X81628Y129677D01*
Y140157D01*
X81528Y140660D01*
X81243Y141086D01*
X79043Y143285D01*
Y146547D01*
X73532D01*
Y145301D01*
X71760D01*
Y146547D01*
X66248D01*
Y145301D01*
X64477D01*
Y146547D01*
X58965D01*
Y141429D01*
X64477D01*
Y142676D01*
X66248D01*
Y141429D01*
X71760D01*
Y142676D01*
X73532D01*
Y141429D01*
X77187D01*
X77906Y140710D01*
X77715Y140248D01*
X73532D01*
Y135130D01*
X75230D01*
Y132768D01*
X73532D01*
Y128949D01*
X72260Y127677D01*
X71760Y127884D01*
Y132768D01*
X70108D01*
Y135130D01*
X71760D01*
Y140248D01*
X66248D01*
Y135130D01*
X67900D01*
Y132768D01*
X66248D01*
Y129014D01*
X64977Y127742D01*
X64477Y127949D01*
Y132768D01*
X62824D01*
Y135130D01*
X64477D01*
Y140248D01*
X58965D01*
Y135130D01*
X60617D01*
Y132768D01*
X58965D01*
Y127986D01*
X55669Y124691D01*
X55207Y124882D01*
Y158843D01*
X55127Y159247D01*
X54897Y159590D01*
X52323Y162165D01*
X51980Y162394D01*
X51575Y162475D01*
X42913D01*
Y165354D01*
X35039D01*
Y162475D01*
X26969D01*
Y164173D01*
X21850D01*
Y158661D01*
X26969D01*
Y160360D01*
X35039D01*
Y157480D01*
X42913D01*
Y160360D01*
X51137D01*
X53092Y158405D01*
Y150238D01*
X52630Y150047D01*
X50512Y152165D01*
X50169Y152395D01*
X49764Y152475D01*
X42769D01*
X42645Y152937D01*
X42127Y153835D01*
X41394Y154568D01*
X40496Y155086D01*
X39495Y155354D01*
X38458D01*
X37457Y155086D01*
X36559Y154568D01*
X35826Y153835D01*
X35308Y152937D01*
X35184Y152475D01*
X26969D01*
Y154173D01*
X21850D01*
Y148661D01*
X26969D01*
Y150360D01*
X35184D01*
X35308Y149898D01*
X35826Y149000D01*
X36559Y148267D01*
X37457Y147749D01*
X38458Y147480D01*
X39495D01*
X40496Y147749D01*
X41394Y148267D01*
X42127Y149000D01*
X42645Y149898D01*
X42769Y150360D01*
X49326D01*
X51805Y147881D01*
Y136959D01*
X51342Y136767D01*
X45944Y142166D01*
X45601Y142395D01*
X45197Y142475D01*
X42769D01*
X42645Y142937D01*
X42127Y143835D01*
X41394Y144568D01*
X40496Y145086D01*
X39495Y145354D01*
X38458D01*
X37457Y145086D01*
X36559Y144568D01*
X35826Y143835D01*
X35308Y142937D01*
X35184Y142475D01*
X26969D01*
Y144174D01*
X21850D01*
Y138662D01*
X26969D01*
Y140360D01*
X35184D01*
X35308Y139898D01*
X35826Y139000D01*
X36559Y138267D01*
X37457Y137749D01*
X38458Y137480D01*
X39495D01*
X40496Y137749D01*
X41394Y138267D01*
X42127Y139000D01*
X42645Y139898D01*
X42769Y140360D01*
X44758D01*
X50517Y134601D01*
Y129978D01*
X50055Y129787D01*
X47677Y132165D01*
X47334Y132394D01*
X46929Y132475D01*
X42769D01*
X42645Y132937D01*
X42127Y133835D01*
X41394Y134568D01*
X40496Y135086D01*
X39495Y135354D01*
X38458D01*
X37457Y135086D01*
X36559Y134568D01*
X35826Y133835D01*
X35308Y132937D01*
X35184Y132475D01*
X26969D01*
Y134173D01*
X21850D01*
Y128661D01*
X26969D01*
Y130359D01*
X35184D01*
X35308Y129898D01*
X35826Y129000D01*
X36559Y128267D01*
X37457Y127749D01*
X38458Y127480D01*
X39495D01*
X40496Y127749D01*
X41394Y128267D01*
X42127Y129000D01*
X42645Y129898D01*
X42769Y130359D01*
X46491D01*
X49230Y127621D01*
Y120030D01*
X48768Y119838D01*
X46441Y122165D01*
X46098Y122395D01*
X45693Y122475D01*
X42769D01*
X42645Y122937D01*
X42127Y123835D01*
X41394Y124568D01*
X40496Y125086D01*
X39495Y125354D01*
X38458D01*
X37457Y125086D01*
X36559Y124568D01*
X35826Y123835D01*
X35308Y122937D01*
X35184Y122475D01*
X26969D01*
Y124173D01*
X21850D01*
Y118661D01*
X26969D01*
Y120360D01*
X35184D01*
X35308Y119898D01*
X35826Y119000D01*
X36559Y118267D01*
X37457Y117749D01*
X38458Y117480D01*
X39495D01*
X40496Y117749D01*
X41394Y118267D01*
X42127Y119000D01*
X42645Y119898D01*
X42769Y120360D01*
X45255D01*
X47942Y117672D01*
Y109719D01*
X47480Y109527D01*
X44842Y112165D01*
X44499Y112395D01*
X44094Y112475D01*
X42769D01*
X42645Y112937D01*
X42127Y113835D01*
X41394Y114568D01*
X40496Y115086D01*
X39495Y115354D01*
X38458D01*
X37457Y115086D01*
X36559Y114568D01*
X35826Y113835D01*
X35308Y112937D01*
X35184Y112475D01*
X26969D01*
Y114173D01*
X21850D01*
Y108661D01*
X26969D01*
Y110360D01*
X35184D01*
X35308Y109898D01*
X35826Y109000D01*
X36559Y108267D01*
X37457Y107749D01*
X38458Y107480D01*
X39495D01*
X40496Y107749D01*
X41394Y108267D01*
X42127Y109000D01*
X42645Y109898D01*
X42769Y110360D01*
X43656D01*
X47657Y106359D01*
X47677Y106328D01*
X50987Y103019D01*
X50973Y102901D01*
X50551Y102475D01*
X42769D01*
X42645Y102937D01*
X42127Y103835D01*
X41394Y104568D01*
X40496Y105086D01*
X39495Y105354D01*
X38458D01*
X37457Y105086D01*
X36559Y104568D01*
X35826Y103835D01*
X35308Y102937D01*
X35184Y102475D01*
X26969D01*
Y104173D01*
X21850D01*
Y98662D01*
X26969D01*
Y100360D01*
X35184D01*
X35308Y99898D01*
X35826Y99000D01*
X36559Y98267D01*
X37457Y97749D01*
X38458Y97480D01*
X39495D01*
X40496Y97749D01*
X41394Y98267D01*
X42127Y99000D01*
X42645Y99898D01*
X42769Y100360D01*
X50113D01*
X57417Y93056D01*
X57760Y92826D01*
X57754Y92606D01*
X57580Y92298D01*
X42816D01*
X42645Y92937D01*
X42127Y93835D01*
X41394Y94568D01*
X40496Y95086D01*
X39495Y95354D01*
X38458D01*
X37457Y95086D01*
X36559Y94568D01*
X35826Y93835D01*
X35308Y92937D01*
X35137Y92298D01*
X26969D01*
Y94173D01*
X21850D01*
Y88661D01*
X26969D01*
Y90183D01*
X35231D01*
X35308Y89898D01*
X35826Y89000D01*
X36559Y88267D01*
X37457Y87749D01*
X38458Y87480D01*
X39495D01*
X40496Y87749D01*
X41394Y88267D01*
X42127Y89000D01*
X42645Y89898D01*
X42721Y90183D01*
X57725D01*
X57989Y89689D01*
X57905Y89552D01*
X57904Y89549D01*
X57831Y89181D01*
X65595D01*
X65522Y89549D01*
X65520Y89552D01*
X65269Y89961D01*
X65520Y90370D01*
X65522Y90372D01*
X65614Y90837D01*
Y91644D01*
X65522Y92108D01*
X65520Y92111D01*
X65269Y92520D01*
X65520Y92929D01*
X65522Y92931D01*
X65614Y93396D01*
Y94203D01*
X65522Y94667D01*
X65520Y94670D01*
X65269Y95079D01*
X65520Y95488D01*
X65522Y95490D01*
X65614Y95955D01*
Y96762D01*
X65522Y97226D01*
X65520Y97229D01*
X65269Y97638D01*
X65520Y98047D01*
X65522Y98049D01*
X65614Y98514D01*
Y99321D01*
X65522Y99786D01*
X65520Y99788D01*
X65269Y100197D01*
X65520Y100606D01*
X65522Y100608D01*
X65614Y101073D01*
Y101880D01*
X65522Y102345D01*
X65520Y102347D01*
X65269Y102756D01*
X65520Y103165D01*
X65522Y103167D01*
X65614Y103632D01*
Y104439D01*
X65522Y104904D01*
X65520Y104906D01*
X65269Y105315D01*
X65520Y105724D01*
X65522Y105726D01*
X65614Y106191D01*
Y106998D01*
X65522Y107463D01*
X65520Y107465D01*
X65269Y107874D01*
X65520Y108283D01*
X65522Y108285D01*
X65614Y108750D01*
Y109557D01*
X65522Y110022D01*
X65520Y110024D01*
X65269Y110433D01*
X65520Y110842D01*
X65522Y110844D01*
X65614Y111309D01*
Y112116D01*
X65522Y112581D01*
X65520Y112583D01*
X65269Y112992D01*
X65520Y113401D01*
X65522Y113403D01*
X65614Y113868D01*
Y114675D01*
X65522Y115140D01*
X65520Y115142D01*
X65436Y115279D01*
X65700Y115773D01*
X69980D01*
X70385Y115854D01*
X70728Y116083D01*
X73583Y118937D01*
X73812Y119280D01*
X73892Y119685D01*
Y121350D01*
X75787D01*
Y123909D01*
Y126469D01*
X74696D01*
X74505Y126930D01*
X75224Y127649D01*
X79043D01*
Y127842D01*
X79543Y128049D01*
X81699Y125894D01*
X81615Y125394D01*
X80906D01*
Y120275D01*
X81758D01*
Y118449D01*
X81624D01*
X81159Y118356D01*
X80765Y118093D01*
X80502Y117699D01*
X80410Y117234D01*
Y116427D01*
X80502Y115963D01*
X80387Y115581D01*
X80210Y115508D01*
X79767Y115065D01*
X79528Y114486D01*
Y113860D01*
X79767Y113281D01*
X80056Y112992D01*
X79767Y112703D01*
X79528Y112124D01*
Y111498D01*
X79767Y110919D01*
X79929Y110758D01*
X79722Y110257D01*
X79626D01*
X79204Y110173D01*
X78845Y109934D01*
X75597Y106686D01*
X75358Y106328D01*
X75274Y105906D01*
Y84252D01*
X73819D01*
Y78740D01*
X78937D01*
Y84252D01*
X77482D01*
Y105448D01*
X79852Y107818D01*
X80114Y107786D01*
X80195Y107719D01*
X80463Y107266D01*
X80410Y106998D01*
Y106191D01*
X80502Y105726D01*
X80504Y105724D01*
X80755Y105315D01*
X80504Y104906D01*
X80502Y104904D01*
X80410Y104439D01*
Y103632D01*
X80502Y103167D01*
X80504Y103165D01*
X80755Y102756D01*
X80504Y102347D01*
X80502Y102345D01*
X80410Y101880D01*
Y101073D01*
X80502Y100608D01*
X80504Y100606D01*
X80755Y100197D01*
X80504Y99788D01*
X80502Y99786D01*
X80410Y99321D01*
Y98514D01*
X80502Y98049D01*
X80504Y98047D01*
X80755Y97638D01*
X80504Y97229D01*
X80502Y97226D01*
X80410Y96762D01*
Y95955D01*
X80502Y95490D01*
X80504Y95488D01*
X80755Y95079D01*
X80504Y94670D01*
X80502Y94667D01*
X80410Y94203D01*
Y93396D01*
X80502Y92931D01*
X80504Y92929D01*
X80755Y92520D01*
X80504Y92111D01*
X80502Y92108D01*
X80410Y91644D01*
Y90837D01*
X80502Y90372D01*
X80504Y90370D01*
X80755Y89961D01*
X80504Y89552D01*
X80502Y89549D01*
X80410Y89085D01*
Y88278D01*
X80502Y87813D01*
X80765Y87419D01*
X81159Y87156D01*
X81624Y87063D01*
X86998D01*
X87463Y87156D01*
X87857Y87419D01*
X88120Y87813D01*
X88210Y88266D01*
X89901D01*
X90324Y88350D01*
X90682Y88589D01*
X92406Y90314D01*
X96063D01*
Y87480D01*
X103937D01*
Y90314D01*
X105315D01*
Y88661D01*
X110433D01*
Y94173D01*
X105315D01*
Y92521D01*
X103937D01*
Y95354D01*
X96205D01*
X95952Y95809D01*
X98108Y97964D01*
X98480Y97749D01*
X99482Y97480D01*
X100518D01*
X101520Y97749D01*
X102417Y98267D01*
X103150Y99000D01*
X103669Y99898D01*
X103780Y100313D01*
X105315D01*
Y98661D01*
X110433D01*
Y102415D01*
X111152Y103134D01*
X111614Y102943D01*
Y101917D01*
X114173D01*
X116732D01*
Y104014D01*
X120011D01*
X120081Y103543D01*
X119357Y103244D01*
X118804Y102690D01*
X118504Y101966D01*
Y101183D01*
X118804Y100460D01*
X119160Y100103D01*
Y86370D01*
X110480Y77691D01*
X68980D01*
X68788Y78153D01*
X69376Y78740D01*
X72638D01*
Y84252D01*
X67520D01*
Y80597D01*
X64229Y77306D01*
X63945Y76880D01*
X63845Y76378D01*
Y67126D01*
X62992D01*
Y62008D01*
Y59337D01*
X62230Y58574D01*
X62065Y58327D01*
X61946Y58149D01*
X61946Y58149D01*
X61946Y58149D01*
X61892Y57880D01*
X61846Y57646D01*
Y57520D01*
X59232D01*
Y48780D01*
X59232D01*
Y48464D01*
X59232D01*
Y39724D01*
X59567D01*
X59587Y39700D01*
Y31200D01*
X59687Y30698D01*
X59972Y30272D01*
X60322Y29921D01*
X55415Y25013D01*
X51771D01*
X51729Y25167D01*
X51229Y26034D01*
X50522Y26741D01*
X49655Y27241D01*
X48689Y27500D01*
X47689D01*
X46723Y27241D01*
X45856Y26741D01*
X45149Y26034D01*
X44649Y25167D01*
X44390Y24201D01*
Y23201D01*
X44649Y22234D01*
X45149Y21368D01*
X45856Y20661D01*
X46723Y20161D01*
X47689Y19902D01*
X48689D01*
X49655Y20161D01*
X50522Y20661D01*
X51229Y21368D01*
X51729Y22234D01*
X51771Y22388D01*
X55958D01*
X56461Y22488D01*
X56887Y22773D01*
X61476Y27362D01*
X66929D01*
Y32480D01*
X62213D01*
Y33661D01*
X66929D01*
Y34908D01*
X68898D01*
Y33858D01*
X73622D01*
Y38583D01*
X68898D01*
Y37533D01*
X66929D01*
Y38780D01*
X62510D01*
X62336Y39279D01*
X62781Y39724D01*
X65571D01*
Y48464D01*
X65571D01*
Y48780D01*
X65571D01*
Y57480D01*
X67323D01*
Y62008D01*
Y67126D01*
X66470D01*
Y75065D01*
X111024D01*
X111526Y75165D01*
X111952Y75450D01*
X121401Y84899D01*
X121685Y85325D01*
X121785Y85827D01*
Y100103D01*
X122141Y100460D01*
X122441Y101183D01*
Y101966D01*
X122141Y102690D01*
X121588Y103244D01*
X120864Y103543D01*
X120934Y104014D01*
X126042D01*
X126273Y103783D01*
X126852Y103543D01*
X127479D01*
X128057Y103783D01*
X128500Y104226D01*
X128740Y104805D01*
X129211Y104735D01*
Y81102D01*
X129295Y80680D01*
X129534Y80322D01*
X133471Y76385D01*
X133829Y76145D01*
X134252Y76061D01*
X144527D01*
X145096Y75493D01*
X144909Y75167D01*
X144650Y74201D01*
Y73201D01*
X144909Y72235D01*
X145409Y71368D01*
X146116Y70661D01*
X146983Y70161D01*
X147949Y69902D01*
X148949D01*
X149915Y70161D01*
X150782Y70661D01*
X151489Y71368D01*
X151989Y72235D01*
X152248Y73201D01*
Y74201D01*
X151989Y75167D01*
X151489Y76034D01*
X150782Y76741D01*
X150438Y76939D01*
X150572Y77439D01*
X153149D01*
X155096Y75493D01*
X154909Y75167D01*
X154650Y74201D01*
Y73201D01*
X154909Y72235D01*
X155409Y71368D01*
X156116Y70661D01*
X156983Y70161D01*
X157949Y69902D01*
X158949D01*
X159915Y70161D01*
X160782Y70661D01*
X161489Y71368D01*
X161989Y72235D01*
X162248Y73201D01*
Y74201D01*
X161989Y75167D01*
X161489Y76034D01*
X160782Y76741D01*
X159915Y77241D01*
X158949Y77500D01*
X157949D01*
X156983Y77241D01*
X156657Y77054D01*
X154387Y79324D01*
X154029Y79563D01*
X153607Y79647D01*
X135280D01*
X132797Y82130D01*
Y84808D01*
X133297Y85142D01*
X133545Y85039D01*
X134171D01*
X134449Y84854D01*
Y84646D01*
X139567D01*
Y90158D01*
X134449D01*
Y88374D01*
X134171Y88189D01*
X133545D01*
X133297Y88086D01*
X132797Y88420D01*
Y103312D01*
X133297Y103646D01*
X133545Y103543D01*
X134171D01*
X134750Y103783D01*
X135193Y104226D01*
X135433Y104805D01*
Y105132D01*
X136214Y105912D01*
X136453Y106271D01*
X136537Y106693D01*
Y120409D01*
X137788Y121660D01*
X138028Y122019D01*
X138112Y122441D01*
Y135088D01*
X138126Y135109D01*
X138210Y135531D01*
Y139370D01*
X141142D01*
Y143258D01*
X141604Y143449D01*
X142323Y142730D01*
Y139370D01*
X147441D01*
Y144882D01*
X143293D01*
X142119Y146056D01*
X141761Y146295D01*
X141339Y146379D01*
X139827D01*
X138120Y148087D01*
X138146Y148562D01*
X138551Y148825D01*
X138565Y148819D01*
X139191D01*
X139770Y149059D01*
X140213Y149502D01*
X140453Y150080D01*
Y150266D01*
X143020Y152833D01*
X156633D01*
X157056Y152917D01*
X157414Y153156D01*
X164560Y160302D01*
X164799Y160661D01*
X164883Y161083D01*
Y222377D01*
X168174Y225668D01*
X168898D01*
Y224016D01*
X183071D01*
Y229528D01*
X168898D01*
Y227876D01*
X167717D01*
X167294Y227792D01*
X166936Y227552D01*
X163770Y224387D01*
X163309Y224578D01*
Y247181D01*
X166993Y250865D01*
X168898D01*
Y249213D01*
X183071D01*
Y254724D01*
X168898D01*
Y253072D01*
X166535D01*
X166113Y252988D01*
X165755Y252749D01*
X162393Y249387D01*
X161931Y249578D01*
Y274149D01*
X164237Y276455D01*
X168898D01*
Y274803D01*
X183071D01*
Y280315D01*
X168898D01*
Y278663D01*
X163779D01*
X163357Y278579D01*
X162999Y278340D01*
X161015Y276355D01*
X160553Y276547D01*
Y297181D01*
X165418Y302046D01*
X168898D01*
Y300394D01*
X183071D01*
Y305906D01*
X168898D01*
Y304253D01*
X164961D01*
X164538Y304169D01*
X164180Y303930D01*
X158668Y298418D01*
X158429Y298060D01*
X158345Y297638D01*
Y163056D01*
X154661Y159372D01*
X140001D01*
X139770Y159603D01*
X139191Y159843D01*
X138565D01*
X138551Y159837D01*
X138146Y160099D01*
X138120Y160574D01*
X146126Y168581D01*
X146644D01*
X146792Y168030D01*
X147357Y167052D01*
X148155Y166254D01*
X149133Y165690D01*
X150223Y165398D01*
X151352D01*
X152442Y165690D01*
X153420Y166254D01*
X154218Y167052D01*
X154783Y168030D01*
X155075Y169121D01*
Y170249D01*
X154783Y171340D01*
X154218Y172318D01*
X153420Y173116D01*
X152442Y173680D01*
X151352Y173972D01*
X150223D01*
X149133Y173680D01*
X148155Y173116D01*
X147357Y172318D01*
X146792Y171340D01*
X146644Y170789D01*
X145669D01*
X145247Y170705D01*
X144889Y170466D01*
X136651Y162228D01*
X136151Y162435D01*
Y165347D01*
X136067Y165769D01*
X135828Y166127D01*
X129942Y172012D01*
Y174858D01*
X129858Y175280D01*
X129619Y175638D01*
X128663Y176594D01*
Y178740D01*
X128579Y179163D01*
X128543Y179216D01*
Y181496D01*
X128466D01*
Y199336D01*
X128746Y199452D01*
X129189Y199895D01*
X129429Y200474D01*
Y201101D01*
X129189Y201679D01*
X128890Y201979D01*
X129914Y203003D01*
X130154Y203361D01*
X130238Y203784D01*
Y208858D01*
X130154Y209281D01*
X129914Y209639D01*
X128543Y211010D01*
Y214961D01*
X127088D01*
Y222887D01*
X127004Y223309D01*
X126765Y223667D01*
X118549Y231883D01*
X118191Y232122D01*
X117768Y232206D01*
X111481D01*
X99304Y244383D01*
X98946Y244622D01*
X98524Y244706D01*
X91437D01*
X91437Y244706D01*
X91436Y244706D01*
X91230Y244665D01*
X91014Y244622D01*
X91014Y244622D01*
X91014Y244622D01*
X90845Y244509D01*
X90656Y244383D01*
X90656Y244383D01*
X90656Y244383D01*
X90227Y243953D01*
X90148Y243875D01*
X89687Y244066D01*
Y245866D01*
X91338D01*
Y250984D01*
X85827D01*
Y245866D01*
X87479D01*
Y243307D01*
X86024D01*
Y237795D01*
X91142D01*
Y241746D01*
X91788Y242392D01*
X91788Y242392D01*
X91788Y242393D01*
X91823Y242427D01*
X92323Y242326D01*
Y237795D01*
X95585D01*
X98311Y235068D01*
X98104Y234569D01*
X87465D01*
X83683Y238351D01*
Y239075D01*
X83662Y239181D01*
Y243307D01*
X82206D01*
Y245866D01*
X83858D01*
Y250984D01*
X78347D01*
Y245866D01*
X79998D01*
Y243307D01*
X78543D01*
Y237795D01*
X81494D01*
X81559Y237471D01*
X81798Y237113D01*
X86227Y232684D01*
X86585Y232445D01*
X87008Y232361D01*
X97968D01*
X99514Y230815D01*
X99307Y230315D01*
X99215D01*
X98491Y230015D01*
X98027Y229551D01*
X85827D01*
Y230906D01*
X80315D01*
Y229551D01*
X78543D01*
Y230906D01*
X76007D01*
Y237795D01*
X77362D01*
Y243307D01*
X72244D01*
Y237795D01*
X73599D01*
Y230906D01*
X73032D01*
Y229551D01*
X71260D01*
Y230906D01*
X65748D01*
Y227644D01*
X63827Y225722D01*
X61221D01*
Y227165D01*
X57959D01*
X55456Y229668D01*
X55030Y229953D01*
X54528Y230053D01*
X49016D01*
Y231299D01*
X44685D01*
Y228038D01*
X44004Y227357D01*
X43742Y227394D01*
X43504Y227492D01*
Y228240D01*
X41339D01*
X39173D01*
Y226509D01*
X18504D01*
Y227756D01*
X12992D01*
Y227756D01*
X12598D01*
Y227756D01*
X7087D01*
Y227756D01*
X6693D01*
Y227756D01*
X1181Y227756D01*
X1020Y228189D01*
Y383858D01*
Y384727D01*
X1359Y386432D01*
X2024Y388037D01*
X2989Y389483D01*
X4218Y390711D01*
X5663Y391677D01*
X7269Y392342D01*
X8974Y392681D01*
X9843Y392681D01*
X187008D01*
X187877Y392681D01*
D02*
G37*
G36*
X102931Y227397D02*
Y208169D01*
X103016Y207747D01*
X103255Y207389D01*
X107638Y203006D01*
X107638Y202506D01*
X106531Y201399D01*
X85827D01*
Y202650D01*
X83071D01*
Y203650D01*
X85827D01*
Y204594D01*
X86110Y204992D01*
X86299Y205048D01*
X86491Y205086D01*
X86542Y205121D01*
X86601Y205138D01*
X86754Y205262D01*
X86917Y205371D01*
X86951Y205422D01*
X86999Y205461D01*
X87933Y206587D01*
X88470Y206451D01*
X88500Y206299D01*
X88935Y205648D01*
X89586Y205212D01*
X90354Y205060D01*
X92118D01*
Y207067D01*
Y209074D01*
X90645D01*
X90411Y209574D01*
X90813Y210060D01*
X94882D01*
X95650Y210212D01*
X96301Y210648D01*
X96736Y211299D01*
X96889Y212067D01*
X96736Y212835D01*
X96301Y213486D01*
X95650Y213921D01*
X94882Y214074D01*
X90354D01*
X89586Y213921D01*
X88935Y213486D01*
X88500Y212835D01*
X88347Y212067D01*
X88487Y211367D01*
X86297Y208727D01*
X85827Y208897D01*
Y212008D01*
X84175D01*
Y219488D01*
X85827D01*
Y220963D01*
X88724D01*
X88935Y220648D01*
X89586Y220213D01*
X90354Y220060D01*
X94882D01*
X95650Y220213D01*
X95979Y220432D01*
X96298Y220044D01*
X95254Y219000D01*
X94882Y219074D01*
X90354D01*
X89586Y218921D01*
X88935Y218486D01*
X88500Y217835D01*
X88347Y217067D01*
X88500Y216299D01*
X88935Y215648D01*
X89586Y215212D01*
X90354Y215060D01*
X94882D01*
X95650Y215212D01*
X96301Y215648D01*
X96736Y216299D01*
X96889Y217067D01*
X96815Y217439D01*
X98418Y219042D01*
X98658Y219400D01*
X98742Y219823D01*
Y222813D01*
X98658Y223236D01*
X98418Y223594D01*
X96035Y225977D01*
X95677Y226217D01*
X95254Y226301D01*
X85827D01*
Y227142D01*
X98027D01*
X98491Y226678D01*
X99215Y226378D01*
X99998D01*
X100722Y226678D01*
X101275Y227231D01*
X101575Y227955D01*
Y228047D01*
X102075Y228254D01*
X102931Y227397D01*
D02*
G37*
G36*
X110243Y230322D02*
X110601Y230083D01*
X111024Y229998D01*
X117311D01*
X118562Y228748D01*
X118445Y228158D01*
X118176Y228047D01*
X117623Y227493D01*
X117323Y226770D01*
Y225986D01*
X117396Y225809D01*
X117119Y225394D01*
X116339D01*
Y223663D01*
X116011D01*
X115764Y223614D01*
X115509Y223563D01*
X115509Y223563D01*
X115509Y223563D01*
X115508Y223562D01*
X115002Y223486D01*
X114351Y223921D01*
X113583Y224074D01*
X110842D01*
Y225117D01*
X110742Y225619D01*
X110457Y226045D01*
X108268Y228234D01*
Y228738D01*
X107968Y229462D01*
X107414Y230015D01*
X106839Y230254D01*
X97441Y239652D01*
Y242498D01*
X98066D01*
X110243Y230322D01*
D02*
G37*
G36*
X80315Y219488D02*
X81967D01*
Y212008D01*
X80315D01*
Y207612D01*
X78543D01*
Y212008D01*
X76891D01*
Y219488D01*
X78543D01*
Y223045D01*
X79591Y224093D01*
X80315D01*
Y219488D01*
D02*
G37*
G36*
X73032Y225787D02*
X77510D01*
X77701Y225325D01*
X76982Y224606D01*
X73032D01*
Y219488D01*
X74683D01*
Y212008D01*
X73032D01*
Y207612D01*
X72394D01*
X71260Y208746D01*
Y212008D01*
X69608D01*
Y219488D01*
X71260D01*
Y224606D01*
X67077D01*
X66885Y225068D01*
X67605Y225787D01*
X71260D01*
Y227142D01*
X73032D01*
Y225787D01*
D02*
G37*
G36*
X105908Y226378D02*
X106411D01*
X108217Y224573D01*
Y223874D01*
X107636Y223486D01*
X107201Y222835D01*
X107048Y222067D01*
X107201Y221299D01*
X107636Y220648D01*
X108287Y220213D01*
X109055Y220060D01*
X113583D01*
X114351Y220213D01*
X115002Y220648D01*
X115073Y220754D01*
X115728D01*
X115974Y220803D01*
X116229Y220854D01*
X116230Y220854D01*
X116230Y220854D01*
X116434Y220990D01*
X116505Y221038D01*
X118020D01*
X118147Y221063D01*
X121457D01*
Y225146D01*
X121957Y225353D01*
X124880Y222429D01*
Y214961D01*
X123425D01*
Y209449D01*
X126980D01*
X127269Y209098D01*
X127082Y208661D01*
X123425D01*
Y203860D01*
X122244D01*
Y208661D01*
X117126D01*
Y208183D01*
X116626Y208042D01*
X116270Y208279D01*
X115768Y208379D01*
X115073D01*
X115002Y208486D01*
X114351Y208921D01*
X113583Y209074D01*
X109055D01*
X108287Y208921D01*
X107636Y208486D01*
X107201Y207835D01*
X107107Y207365D01*
X106565Y207201D01*
X105139Y208627D01*
Y226155D01*
X105639Y226489D01*
X105908Y226378D01*
D02*
G37*
G36*
X65579Y223365D02*
X65748Y223295D01*
Y219488D01*
X67400D01*
Y212008D01*
X65748D01*
Y206890D01*
X69403D01*
X70123Y206171D01*
X69931Y205709D01*
X69004D01*
Y203150D01*
X68504D01*
Y202650D01*
X65748D01*
Y201399D01*
X61579D01*
X59765Y203213D01*
Y203937D01*
X61221D01*
Y209449D01*
X61221Y209449D01*
Y209842D01*
X61221D01*
X61221Y209949D01*
Y215248D01*
X61221Y215354D01*
Y215748D01*
X61221Y215854D01*
Y218004D01*
X58661D01*
Y219004D01*
X61221D01*
Y221153D01*
X61221Y221260D01*
Y221654D01*
X61221Y221760D01*
Y223097D01*
X64370D01*
X64872Y223197D01*
X65248Y223448D01*
X65579Y223365D01*
D02*
G37*
G36*
X80315Y186024D02*
X81967D01*
Y178543D01*
X80315D01*
Y174230D01*
X78543D01*
Y178543D01*
X76891D01*
Y186024D01*
X78543D01*
Y189285D01*
X79677Y190420D01*
X80315D01*
Y186024D01*
D02*
G37*
G36*
X105315Y158661D02*
X109069D01*
X110243Y157487D01*
X110601Y157248D01*
X111023Y157164D01*
X130097D01*
X130129Y157116D01*
X129861Y156616D01*
X111969D01*
X111546Y156532D01*
X111188Y156292D01*
X109069Y154173D01*
X105315D01*
Y152521D01*
X103780D01*
X103669Y152937D01*
X103150Y153835D01*
X102417Y154568D01*
X101520Y155086D01*
X100518Y155354D01*
X99482D01*
X98480Y155086D01*
X97583Y154568D01*
X96850Y153835D01*
X96331Y152937D01*
X96063Y151936D01*
Y150899D01*
X96331Y149898D01*
X96547Y149525D01*
X93073Y146051D01*
X92611Y146242D01*
Y152467D01*
X98108Y157964D01*
X98480Y157749D01*
X99482Y157480D01*
X100518D01*
X101520Y157749D01*
X102417Y158267D01*
X103150Y159000D01*
X103669Y159898D01*
X103780Y160313D01*
X105315D01*
Y158661D01*
D02*
G37*
G36*
X130746Y153966D02*
X130623Y153807D01*
X130464Y153648D01*
X130224Y153069D01*
Y152742D01*
X124649Y147167D01*
X112520D01*
X112097Y147083D01*
X111739Y146844D01*
X109069Y144173D01*
X105315D01*
Y142521D01*
X103780D01*
X103669Y142937D01*
X103150Y143835D01*
X102417Y144568D01*
X101520Y145086D01*
X100518Y145354D01*
X99482D01*
X98480Y145086D01*
X97583Y144568D01*
X96850Y143835D01*
X96331Y142937D01*
X96063Y141936D01*
Y140899D01*
X96331Y139898D01*
X96547Y139525D01*
X94450Y137429D01*
X93989Y137620D01*
Y143845D01*
X98108Y147964D01*
X98480Y147749D01*
X99482Y147480D01*
X100518D01*
X101520Y147749D01*
X102417Y148267D01*
X103150Y149000D01*
X103669Y149898D01*
X103780Y150313D01*
X105315D01*
Y148661D01*
X110433D01*
Y152415D01*
X111152Y153134D01*
X111614Y152943D01*
Y151917D01*
X114173D01*
X116732D01*
Y154173D01*
X117135Y154408D01*
X130517D01*
X130746Y153966D01*
D02*
G37*
G36*
X124697Y144459D02*
X117956Y137718D01*
X113071D01*
X112648Y137634D01*
X112290Y137395D01*
X109069Y134173D01*
X105315D01*
Y132521D01*
X103780D01*
X103669Y132937D01*
X103150Y133835D01*
X102417Y134568D01*
X101520Y135086D01*
X100518Y135354D01*
X99482D01*
X98480Y135086D01*
X97583Y134568D01*
X96850Y133835D01*
X96331Y132937D01*
X96063Y131936D01*
Y130899D01*
X96331Y129898D01*
X96547Y129525D01*
X95828Y128807D01*
X95367Y128998D01*
Y135223D01*
X98108Y137964D01*
X98480Y137749D01*
X99482Y137480D01*
X100518D01*
X101520Y137749D01*
X102417Y138267D01*
X103150Y139000D01*
X103669Y139898D01*
X103780Y140313D01*
X105315D01*
Y138661D01*
X110433D01*
Y142415D01*
X111152Y143134D01*
X111614Y142943D01*
Y141917D01*
X113673D01*
Y144173D01*
X112884D01*
X112696Y144612D01*
X112982Y144959D01*
X124490D01*
X124697Y144459D01*
D02*
G37*
G36*
X132565Y148163D02*
Y128740D01*
X128937D01*
Y123228D01*
X129211D01*
Y121870D01*
X127468Y120127D01*
X127228Y119769D01*
X127212Y119685D01*
X122244D01*
Y118033D01*
X103879D01*
X103648Y118264D01*
X103276Y118418D01*
X103116Y118966D01*
X103150Y119000D01*
X103669Y119898D01*
X103780Y120314D01*
X105315D01*
Y118661D01*
X110433D01*
Y124173D01*
X105315D01*
Y122521D01*
X103780D01*
X103669Y122937D01*
X103284Y123603D01*
X103296Y124149D01*
X103739Y124592D01*
X103859Y124880D01*
X122638D01*
Y123228D01*
X127756D01*
Y128740D01*
X122638D01*
Y127088D01*
X103170D01*
X102817Y127018D01*
X102717Y127059D01*
X102091D01*
X101512Y126819D01*
X101069Y126376D01*
X100829Y125797D01*
Y125593D01*
X100518Y125354D01*
X99482D01*
X98480Y125086D01*
X97583Y124568D01*
X97245Y124230D01*
X96745Y124437D01*
Y126601D01*
X98108Y127964D01*
X98480Y127749D01*
X99482Y127480D01*
X100518D01*
X101520Y127749D01*
X102417Y128267D01*
X103150Y129000D01*
X103669Y129898D01*
X103780Y130314D01*
X105315D01*
Y128661D01*
X110433D01*
Y132415D01*
X111152Y133134D01*
X111614Y132943D01*
Y131917D01*
X113673D01*
Y134173D01*
X112844D01*
X112653Y134635D01*
X113528Y135510D01*
X118413D01*
X118836Y135594D01*
X119194Y135834D01*
X131786Y148425D01*
X132113D01*
X132150Y148441D01*
X132565Y148163D01*
D02*
G37*
G36*
X100951Y116539D02*
X101254Y116441D01*
X101421Y116037D01*
X101864Y115594D01*
X102443Y115354D01*
X103069D01*
X103648Y115594D01*
X103879Y115825D01*
X122244D01*
Y114173D01*
X127212D01*
X127228Y114090D01*
X127468Y113732D01*
X129211Y111988D01*
Y105501D01*
X128740Y105431D01*
X128500Y106010D01*
X128057Y106453D01*
X127479Y106693D01*
X126852D01*
X126273Y106453D01*
X126042Y106222D01*
X111575D01*
X111153Y106138D01*
X110794Y105899D01*
X109069Y104173D01*
X105315D01*
Y102521D01*
X103780D01*
X103669Y102937D01*
X103150Y103835D01*
X102417Y104568D01*
X101520Y105086D01*
X100518Y105354D01*
X100166D01*
X99975Y105816D01*
X100760Y106601D01*
X100999Y106960D01*
X101083Y107382D01*
Y107632D01*
X101520Y107749D01*
X102417Y108267D01*
X103150Y109000D01*
X103669Y109898D01*
X103780Y110313D01*
X105315D01*
Y108661D01*
X110433D01*
Y114173D01*
X105315D01*
Y112521D01*
X103780D01*
X103669Y112937D01*
X103150Y113835D01*
X102417Y114568D01*
X101520Y115086D01*
X100518Y115354D01*
X100166D01*
X99975Y115816D01*
X100708Y116550D01*
X100759Y116557D01*
X100951Y116539D01*
D02*
G37*
%LPC*%
G36*
X28346Y338976D02*
X22154D01*
Y333571D01*
X28346D01*
Y338976D01*
D02*
G37*
G36*
X21154D02*
X14961D01*
Y333571D01*
X21154D01*
Y338976D01*
D02*
G37*
G36*
X28346Y332571D02*
X22154D01*
Y327165D01*
X28346D01*
Y332571D01*
D02*
G37*
G36*
X21154D02*
X14961D01*
Y327165D01*
X21154D01*
Y332571D01*
D02*
G37*
G36*
X156299Y305906D02*
X142126D01*
Y300394D01*
X156299D01*
Y305906D01*
D02*
G37*
G36*
X112599Y340945D02*
X99213D01*
Y325197D01*
X104593D01*
Y300544D01*
X99999Y295950D01*
X99575Y296063D01*
X98850D01*
X98149Y295875D01*
X97520Y295512D01*
X97007Y294999D01*
X96645Y294371D01*
X96457Y293670D01*
Y292944D01*
X96645Y292243D01*
X97007Y291615D01*
X97520Y291102D01*
X97900Y290883D01*
Y286024D01*
X96555D01*
Y280906D01*
X101870D01*
Y282152D01*
X105709D01*
Y280709D01*
X110827D01*
Y286221D01*
X105709D01*
Y284777D01*
X101870D01*
Y286024D01*
X100525D01*
Y290883D01*
X100905Y291102D01*
X101418Y291615D01*
X101781Y292243D01*
X101969Y292944D01*
Y293670D01*
X101855Y294093D01*
X106834Y299072D01*
X107118Y299498D01*
X107218Y300000D01*
Y325197D01*
X112599D01*
Y340945D01*
D02*
G37*
G36*
X156299Y290158D02*
X142126D01*
Y284646D01*
X156299D01*
Y290158D01*
D02*
G37*
G36*
X40354Y278346D02*
X31299D01*
Y276667D01*
X30995Y276606D01*
X30849Y276509D01*
X29331D01*
Y277756D01*
X25000D01*
Y272638D01*
X29331D01*
Y273884D01*
X31299D01*
Y272441D01*
X40354D01*
Y272930D01*
X40816Y273121D01*
X44373Y269564D01*
X44799Y269280D01*
X45302Y269180D01*
X45460D01*
Y268587D01*
X54533D01*
Y272398D01*
X45460D01*
X45460Y272398D01*
Y272398D01*
X45045Y272605D01*
X41328Y276322D01*
X40902Y276606D01*
X40400Y276706D01*
X40354D01*
Y278346D01*
D02*
G37*
G36*
X23819Y277756D02*
X22154D01*
Y275697D01*
X23819D01*
Y277756D01*
D02*
G37*
G36*
X21154D02*
X19488D01*
Y275697D01*
X21154D01*
Y277756D01*
D02*
G37*
G36*
X156299Y280315D02*
X142126D01*
Y274803D01*
X156299D01*
Y280315D01*
D02*
G37*
G36*
X23819Y274697D02*
X22154D01*
Y272638D01*
X23819D01*
Y274697D01*
D02*
G37*
G36*
X21154D02*
X19488D01*
Y272638D01*
X21154D01*
Y274697D01*
D02*
G37*
G36*
X117126Y286221D02*
X112008D01*
Y280709D01*
X113254D01*
Y276772D01*
X112402D01*
Y272876D01*
X112402Y272835D01*
X112303Y272376D01*
X108858D01*
Y273031D01*
X104528D01*
Y272376D01*
X101870D01*
Y273622D01*
X96555D01*
Y272376D01*
X94191D01*
X93688Y272276D01*
X93262Y271991D01*
X93056Y271785D01*
X91142D01*
Y273228D01*
X86024D01*
Y267717D01*
X91142D01*
Y269160D01*
X93600D01*
X94102Y269260D01*
X94528Y269544D01*
X94734Y269750D01*
X96555D01*
Y268504D01*
X96555D01*
Y268307D01*
X96555D01*
Y263189D01*
X101870D01*
Y268307D01*
X101870D01*
Y268504D01*
X101870D01*
Y269750D01*
X104528D01*
Y269094D01*
X108858D01*
Y269750D01*
X112303D01*
X112402Y269291D01*
X112402Y269250D01*
Y265354D01*
X113254D01*
Y255709D01*
X112008D01*
Y254856D01*
X101870D01*
Y255906D01*
X96555D01*
Y250787D01*
X101870D01*
Y252231D01*
X112008D01*
Y251378D01*
X117126D01*
Y251430D01*
X117626Y251637D01*
X117782Y251481D01*
X118506Y251181D01*
X119289D01*
X120013Y251481D01*
X120566Y252034D01*
X120866Y252758D01*
Y253541D01*
X120566Y254265D01*
X120013Y254818D01*
X119289Y255118D01*
X118506D01*
X117873Y254856D01*
X117126D01*
Y255709D01*
X115880D01*
Y265354D01*
X116732D01*
Y269250D01*
X116732Y269291D01*
X116831Y269750D01*
X118945D01*
X119554Y269141D01*
Y262267D01*
X119174Y262048D01*
X118661Y261535D01*
X118298Y260906D01*
X118110Y260205D01*
Y259480D01*
X118298Y258779D01*
X118661Y258150D01*
X119174Y257637D01*
X119802Y257275D01*
X120503Y257087D01*
X121229D01*
X121930Y257275D01*
X122558Y257637D01*
X123072Y258150D01*
X123434Y258779D01*
X123622Y259480D01*
Y260205D01*
X123434Y260906D01*
X123072Y261535D01*
X122558Y262048D01*
X122179Y262267D01*
Y269685D01*
X122079Y270187D01*
X121794Y270613D01*
X120416Y271991D01*
X119991Y272276D01*
X119488Y272376D01*
X116831D01*
X116732Y272835D01*
X116732Y272876D01*
Y276772D01*
X115880D01*
Y280709D01*
X117126D01*
Y286221D01*
D02*
G37*
G36*
X84842Y273228D02*
X79724D01*
Y271785D01*
X75999D01*
X75900Y271805D01*
X73734D01*
X73693Y271866D01*
X73063Y272287D01*
X72319Y272435D01*
X67058D01*
X66314Y272287D01*
X65684Y271866D01*
X65263Y271236D01*
X65115Y270492D01*
X65263Y269749D01*
X65684Y269118D01*
X66314Y268697D01*
X67058Y268549D01*
X72319D01*
X73063Y268697D01*
X73693Y269118D01*
X73734Y269180D01*
X75820D01*
X75920Y269160D01*
X79724D01*
Y267717D01*
X84842D01*
Y273228D01*
D02*
G37*
G36*
X40354Y268504D02*
X31299D01*
Y267061D01*
X29331D01*
Y268307D01*
X25000D01*
Y263189D01*
X29331D01*
Y264435D01*
X30849D01*
X30994Y264338D01*
X31299Y264278D01*
Y262598D01*
X40354D01*
Y264239D01*
X42562D01*
X42859Y264180D01*
X45951D01*
X45992Y264118D01*
X46622Y263697D01*
X47366Y263549D01*
X52627D01*
X53371Y263697D01*
X54001Y264118D01*
X54422Y264749D01*
X54570Y265492D01*
X54422Y266236D01*
X54001Y266866D01*
X53371Y267287D01*
X52627Y267435D01*
X47366D01*
X46622Y267287D01*
X45992Y266866D01*
X45951Y266805D01*
X43097D01*
X42800Y266864D01*
X40354D01*
Y268504D01*
D02*
G37*
G36*
X23819Y268307D02*
X22154D01*
Y266248D01*
X23819D01*
Y268307D01*
D02*
G37*
G36*
X21154D02*
X19488D01*
Y266248D01*
X21154D01*
Y268307D01*
D02*
G37*
G36*
X23819Y265248D02*
X22154D01*
Y263189D01*
X23819D01*
Y265248D01*
D02*
G37*
G36*
X21154D02*
X19488D01*
Y263189D01*
X21154D01*
Y265248D01*
D02*
G37*
G36*
X52627Y262435D02*
X47366D01*
X46622Y262287D01*
X45992Y261866D01*
X45781Y261550D01*
X39232D01*
X38828Y261469D01*
X38484Y261240D01*
X37683Y260439D01*
X37678Y260442D01*
X36977Y260630D01*
X36251D01*
X35550Y260442D01*
X34922Y260079D01*
X34409Y259566D01*
X34046Y258938D01*
X33858Y258237D01*
Y257511D01*
X34046Y256810D01*
X34409Y256182D01*
X34922Y255669D01*
X35550Y255306D01*
X36251Y255118D01*
X36977D01*
X37678Y255306D01*
X38306Y255669D01*
X38820Y256182D01*
X39182Y256810D01*
X39370Y257511D01*
Y258237D01*
X39182Y258938D01*
X39179Y258943D01*
X39671Y259435D01*
X45781D01*
X45992Y259118D01*
X46622Y258697D01*
X47366Y258549D01*
X52627D01*
X53371Y258697D01*
X54001Y259118D01*
X54422Y259749D01*
X54570Y260492D01*
X54422Y261236D01*
X54001Y261866D01*
X53371Y262287D01*
X52627Y262435D01*
D02*
G37*
G36*
X72319Y267435D02*
X67058D01*
X66314Y267287D01*
X65684Y266866D01*
X65263Y266236D01*
X65115Y265492D01*
X65263Y264749D01*
X65684Y264118D01*
X66314Y263697D01*
X67058Y263549D01*
X72319D01*
X73063Y263697D01*
X73693Y264118D01*
X73734Y264180D01*
X74515D01*
X75310Y263385D01*
X75197Y262961D01*
Y262236D01*
X75385Y261535D01*
X75748Y260906D01*
X76261Y260393D01*
X76889Y260030D01*
X77590Y259842D01*
X78316D01*
X79017Y260030D01*
X79645Y260393D01*
X80158Y260906D01*
X80521Y261535D01*
X80709Y262236D01*
Y262961D01*
X80521Y263662D01*
X80158Y264291D01*
X79645Y264804D01*
X79017Y265166D01*
X78316Y265354D01*
X77590D01*
X77167Y265241D01*
X75987Y266420D01*
X75561Y266705D01*
X75059Y266805D01*
X73734D01*
X73693Y266866D01*
X73063Y267287D01*
X72319Y267435D01*
D02*
G37*
G36*
X156299Y264567D02*
X142126D01*
Y259055D01*
X156299D01*
Y264567D01*
D02*
G37*
G36*
X183071Y290158D02*
X168898D01*
Y284646D01*
X183071D01*
Y286089D01*
X184496D01*
X191995Y278590D01*
Y258547D01*
X191533Y258355D01*
X187149Y262739D01*
X186723Y263024D01*
X186221Y263124D01*
X183071D01*
Y264567D01*
X168898D01*
Y259055D01*
X183071D01*
Y260498D01*
X185677D01*
X191995Y254181D01*
Y232562D01*
X191533Y232371D01*
X186755Y237149D01*
X186329Y237433D01*
X185827Y237533D01*
X183071D01*
Y238976D01*
X168898D01*
Y233465D01*
X183071D01*
Y234908D01*
X185283D01*
X191995Y228197D01*
Y211302D01*
X191533Y211111D01*
X190692Y211952D01*
X190266Y212236D01*
X189764Y212336D01*
X183071D01*
Y213779D01*
X168898D01*
Y208268D01*
X183071D01*
Y209711D01*
X189220D01*
X191995Y206937D01*
Y164846D01*
X191533Y164655D01*
X186637Y169550D01*
X186211Y169835D01*
X185709Y169935D01*
X184996D01*
Y170249D01*
X184704Y171340D01*
X184139Y172318D01*
X183341Y173116D01*
X182363Y173680D01*
X181273Y173972D01*
X180144D01*
X179054Y173680D01*
X178076Y173116D01*
X177278Y172318D01*
X176713Y171340D01*
X176421Y170249D01*
Y169121D01*
X176713Y168030D01*
X177278Y167052D01*
X178076Y166254D01*
X179054Y165690D01*
X180144Y165398D01*
X181273D01*
X182363Y165690D01*
X183341Y166254D01*
X184139Y167052D01*
X184288Y167309D01*
X185165D01*
X191995Y160480D01*
Y106578D01*
X191533Y106387D01*
X184527Y113393D01*
X184704Y113699D01*
X184996Y114790D01*
Y115919D01*
X184704Y117009D01*
X184139Y117987D01*
X183341Y118785D01*
X182363Y119350D01*
X181273Y119642D01*
X180144D01*
X179054Y119350D01*
X178076Y118785D01*
X177278Y117987D01*
X176713Y117009D01*
X176421Y115919D01*
Y114790D01*
X176713Y113699D01*
X177278Y112722D01*
X178076Y111924D01*
X179054Y111359D01*
X180144Y111067D01*
X181273D01*
X182363Y111359D01*
X182670Y111536D01*
X191995Y102212D01*
Y31252D01*
X185756Y25014D01*
X162248D01*
Y27500D01*
X154650D01*
Y19902D01*
X162248D01*
Y22388D01*
X186299D01*
X186802Y22488D01*
X187228Y22773D01*
X194235Y29781D01*
X194520Y30206D01*
X194620Y30709D01*
Y102756D01*
Y161024D01*
Y207480D01*
Y228740D01*
Y254724D01*
Y279134D01*
X194520Y279636D01*
X194235Y280062D01*
X185968Y288330D01*
X185542Y288614D01*
X185039Y288714D01*
X183071D01*
Y290158D01*
D02*
G37*
G36*
X52627Y257435D02*
X50497D01*
Y255992D01*
X54471D01*
X54422Y256236D01*
X54001Y256866D01*
X53371Y257287D01*
X52627Y257435D01*
D02*
G37*
G36*
X49497D02*
X47366D01*
X46622Y257287D01*
X45992Y256866D01*
X45571Y256236D01*
X45522Y255992D01*
X49497D01*
Y257435D01*
D02*
G37*
G36*
X54471Y254992D02*
X50497D01*
Y253549D01*
X52627D01*
X53371Y253697D01*
X54001Y254118D01*
X54422Y254749D01*
X54471Y254992D01*
D02*
G37*
G36*
X49497D02*
X45522D01*
X45571Y254749D01*
X45992Y254118D01*
X46622Y253697D01*
X47366Y253549D01*
X49497D01*
Y254992D01*
D02*
G37*
G36*
X72319Y262435D02*
X67058D01*
X66314Y262287D01*
X65684Y261866D01*
X65263Y261236D01*
X65115Y260492D01*
X65263Y259749D01*
X65684Y259118D01*
X66314Y258697D01*
X67058Y258549D01*
X71487D01*
X72101Y257935D01*
X71894Y257435D01*
X67058D01*
X66314Y257287D01*
X65684Y256866D01*
X65263Y256236D01*
X65115Y255492D01*
X65263Y254749D01*
X65684Y254118D01*
X66314Y253697D01*
X67058Y253549D01*
X72319D01*
X73063Y253697D01*
X73693Y254118D01*
X73734Y254180D01*
X74456D01*
X74840Y253796D01*
X75266Y253512D01*
X75768Y253412D01*
X78347D01*
Y252165D01*
X83858D01*
Y256587D01*
X85827D01*
Y252165D01*
X91338D01*
Y257283D01*
X89799D01*
X89795Y257302D01*
X89511Y257728D01*
X88411Y258828D01*
X87985Y259113D01*
X87483Y259213D01*
X74536D01*
X74068Y259680D01*
X74114Y259749D01*
X74262Y260492D01*
X74114Y261236D01*
X73693Y261866D01*
X73063Y262287D01*
X72319Y262435D01*
D02*
G37*
G36*
X156299Y254724D02*
X142126D01*
Y249213D01*
X156299D01*
Y254724D01*
D02*
G37*
G36*
X117126Y250197D02*
X115067D01*
Y248531D01*
X117126D01*
Y250197D01*
D02*
G37*
G36*
X114067D02*
X112008D01*
Y248531D01*
X114067D01*
Y250197D01*
D02*
G37*
G36*
X117126Y247531D02*
X115067D01*
Y245866D01*
X117126D01*
Y247531D01*
D02*
G37*
G36*
X114067D02*
X112008D01*
Y245866D01*
X114067D01*
Y247531D01*
D02*
G37*
G36*
X156299Y238976D02*
X142126D01*
Y233465D01*
X156299D01*
Y238976D01*
D02*
G37*
G36*
X43504Y231299D02*
X41839D01*
Y229240D01*
X43504D01*
Y231299D01*
D02*
G37*
G36*
X40839D02*
X39173D01*
Y229240D01*
X40839D01*
Y231299D01*
D02*
G37*
G36*
X156299Y229528D02*
X142126D01*
Y224016D01*
X156299D01*
Y229528D01*
D02*
G37*
G36*
Y213779D02*
X142126D01*
Y208268D01*
X156299D01*
Y213779D01*
D02*
G37*
G36*
X27461Y209429D02*
X24122D01*
Y207961D01*
X27461D01*
Y209429D01*
D02*
G37*
G36*
Y206961D02*
X24122D01*
Y205492D01*
X27461D01*
Y206961D01*
D02*
G37*
G36*
X23122D02*
X19783D01*
Y205492D01*
X23122D01*
Y206961D01*
D02*
G37*
G36*
X18504Y206587D02*
X16248D01*
Y204527D01*
X18504D01*
Y206587D01*
D02*
G37*
G36*
X121457Y186417D02*
X119398D01*
Y184752D01*
X121457D01*
Y186417D01*
D02*
G37*
G36*
X118398D02*
X116339D01*
Y184752D01*
X118398D01*
Y186417D01*
D02*
G37*
G36*
X121457Y183752D02*
X119398D01*
Y182087D01*
X121457D01*
Y183752D01*
D02*
G37*
G36*
X118398D02*
X116339D01*
Y182087D01*
X118398D01*
Y183752D01*
D02*
G37*
G36*
X113583Y185609D02*
X109055D01*
X108287Y185457D01*
X107636Y185022D01*
X107201Y184371D01*
X107048Y183602D01*
X107201Y182834D01*
X107636Y182183D01*
X108287Y181748D01*
X109055Y181595D01*
X113583D01*
X114351Y181748D01*
X115002Y182183D01*
X115437Y182834D01*
X115590Y183602D01*
X115437Y184371D01*
X115002Y185022D01*
X114351Y185457D01*
X113583Y185609D01*
D02*
G37*
G36*
X94882Y175610D02*
X93118D01*
Y174102D01*
X96790D01*
X96736Y174371D01*
X96301Y175022D01*
X95650Y175457D01*
X94882Y175610D01*
D02*
G37*
G36*
X96790Y173102D02*
X93118D01*
Y171595D01*
X94882D01*
X95650Y171748D01*
X96301Y172183D01*
X96736Y172834D01*
X96790Y173102D01*
D02*
G37*
G36*
X68004Y172244D02*
X65748D01*
Y170185D01*
X68004D01*
Y172244D01*
D02*
G37*
G36*
X85827Y169185D02*
X83571D01*
Y167126D01*
X85827D01*
Y169185D01*
D02*
G37*
G36*
X82571D02*
X80315D01*
Y167126D01*
X82571D01*
Y169185D01*
D02*
G37*
G36*
X78543D02*
X76287D01*
Y167126D01*
X78543D01*
Y169185D01*
D02*
G37*
G36*
X75287D02*
X73032D01*
Y167126D01*
X75287D01*
Y169185D01*
D02*
G37*
G36*
X71260D02*
X69004D01*
Y167126D01*
X71260D01*
Y169185D01*
D02*
G37*
G36*
X68004D02*
X65748D01*
Y167126D01*
X68004D01*
Y169185D01*
D02*
G37*
G36*
X20669Y164173D02*
X15551D01*
Y162730D01*
X13779D01*
Y163780D01*
X9055D01*
Y159055D01*
X13779D01*
Y160105D01*
X15551D01*
Y158661D01*
X20669D01*
Y164173D01*
D02*
G37*
G36*
X116732D02*
X114673D01*
Y161917D01*
X116732D01*
Y164173D01*
D02*
G37*
G36*
X113673D02*
X111614D01*
Y161917D01*
X113673D01*
Y164173D01*
D02*
G37*
G36*
X20669Y154173D02*
X15551D01*
Y152730D01*
X13779D01*
Y153779D01*
X9055D01*
Y149055D01*
X13779D01*
Y150105D01*
X15551D01*
Y148661D01*
X20669D01*
Y154173D01*
D02*
G37*
G36*
Y144174D02*
X15551D01*
Y142730D01*
X13779D01*
Y143780D01*
X9055D01*
Y139055D01*
X13779D01*
Y140105D01*
X15551D01*
Y138662D01*
X20669D01*
Y144174D01*
D02*
G37*
G36*
Y134173D02*
X15551D01*
Y132730D01*
X13779D01*
Y133779D01*
X9055D01*
Y129055D01*
X13779D01*
Y130105D01*
X15551D01*
Y128661D01*
X20669D01*
Y134173D01*
D02*
G37*
G36*
X79043Y126469D02*
X76787D01*
Y124409D01*
X79043D01*
Y126469D01*
D02*
G37*
G36*
X88083Y125394D02*
X86417D01*
Y123335D01*
X88083D01*
Y125394D01*
D02*
G37*
G36*
X20669Y124173D02*
X15551D01*
Y122730D01*
X13780D01*
Y123780D01*
X9055D01*
Y119055D01*
X13780D01*
Y120105D01*
X15551D01*
Y118661D01*
X20669D01*
Y124173D01*
D02*
G37*
G36*
X79043Y123409D02*
X76787D01*
Y121350D01*
X79043D01*
Y123409D01*
D02*
G37*
G36*
X88083Y122335D02*
X86417D01*
Y120275D01*
X88083D01*
Y122335D01*
D02*
G37*
G36*
X20669Y114173D02*
X15551D01*
Y112730D01*
X13780D01*
Y113780D01*
X9055D01*
Y109055D01*
X13780D01*
Y110105D01*
X15551D01*
Y108661D01*
X20669D01*
Y114173D01*
D02*
G37*
G36*
Y104173D02*
X15551D01*
Y102730D01*
X13780D01*
Y103780D01*
X9055D01*
Y99055D01*
X13780D01*
Y100105D01*
X15551D01*
Y98662D01*
X20669D01*
Y104173D01*
D02*
G37*
G36*
X116732Y100917D02*
X114673D01*
Y98661D01*
X116732D01*
Y100917D01*
D02*
G37*
G36*
X113673D02*
X111614D01*
Y98661D01*
X113673D01*
Y100917D01*
D02*
G37*
G36*
X20669Y94173D02*
X15551D01*
Y92730D01*
X13780D01*
Y93780D01*
X9055D01*
Y89055D01*
X13780D01*
Y90105D01*
X15551D01*
Y88661D01*
X20669D01*
Y94173D01*
D02*
G37*
G36*
X116732Y94173D02*
X114673D01*
Y91917D01*
X116732D01*
Y94173D01*
D02*
G37*
G36*
X113673D02*
X111614D01*
Y91917D01*
X113673D01*
Y94173D01*
D02*
G37*
G36*
X116732Y90917D02*
X114673D01*
Y88661D01*
X116732D01*
Y90917D01*
D02*
G37*
G36*
X113673D02*
X111614D01*
Y88661D01*
X113673D01*
Y90917D01*
D02*
G37*
G36*
X65595Y88181D02*
X62213D01*
Y87063D01*
X64400D01*
X64864Y87156D01*
X65258Y87419D01*
X65522Y87813D01*
X65595Y88181D01*
D02*
G37*
G36*
X61213D02*
X57831D01*
X57904Y87813D01*
X58167Y87419D01*
X58561Y87156D01*
X59026Y87063D01*
X61213D01*
Y88181D01*
D02*
G37*
G36*
X151352Y119642D02*
X150223D01*
X149133Y119350D01*
X148155Y118785D01*
X147357Y117987D01*
X146792Y117009D01*
X146500Y115919D01*
Y114790D01*
X146792Y113699D01*
X147357Y112722D01*
X148155Y111924D01*
X149133Y111359D01*
X149683Y111212D01*
Y95536D01*
X144305Y90158D01*
X140748D01*
Y84646D01*
X145866D01*
Y88596D01*
X151568Y94298D01*
X151807Y94656D01*
X151891Y95079D01*
Y111212D01*
X152442Y111359D01*
X153420Y111924D01*
X154218Y112722D01*
X154783Y113699D01*
X155075Y114790D01*
Y115919D01*
X154783Y117009D01*
X154218Y117987D01*
X153420Y118785D01*
X152442Y119350D01*
X151352Y119642D01*
D02*
G37*
G36*
X48689Y77500D02*
X47689D01*
X46723Y77241D01*
X45856Y76741D01*
X45149Y76034D01*
X44649Y75167D01*
X44390Y74201D01*
Y73201D01*
X44649Y72234D01*
X45149Y71368D01*
X45856Y70661D01*
X46723Y70161D01*
X47689Y69902D01*
X48689D01*
X49655Y70161D01*
X50522Y70661D01*
X51229Y71368D01*
X51729Y72234D01*
X51988Y73201D01*
Y74201D01*
X51729Y75167D01*
X51229Y76034D01*
X50522Y76741D01*
X49655Y77241D01*
X48689Y77500D01*
D02*
G37*
G36*
X38689D02*
X37689D01*
X36723Y77241D01*
X35856Y76741D01*
X35149Y76034D01*
X34649Y75167D01*
X34390Y74201D01*
Y73201D01*
X34649Y72234D01*
X35149Y71368D01*
X35856Y70661D01*
X36723Y70161D01*
X37689Y69902D01*
X38689D01*
X39655Y70161D01*
X40522Y70661D01*
X41229Y71368D01*
X41729Y72234D01*
X41988Y73201D01*
Y74201D01*
X41729Y75167D01*
X41229Y76034D01*
X40522Y76741D01*
X39655Y77241D01*
X38689Y77500D01*
D02*
G37*
G36*
X72835Y67126D02*
X71169D01*
Y65067D01*
X72835D01*
Y67126D01*
D02*
G37*
G36*
X70169D02*
X68504D01*
Y65067D01*
X70169D01*
Y67126D01*
D02*
G37*
G36*
X72835Y64067D02*
X70669D01*
X68504D01*
Y62008D01*
Y60539D01*
X70669D01*
X72835D01*
Y62008D01*
Y64067D01*
D02*
G37*
G36*
X158949Y67500D02*
X157949D01*
X156983Y67241D01*
X156116Y66741D01*
X155409Y66034D01*
X154909Y65167D01*
X154650Y64201D01*
Y63201D01*
X154909Y62235D01*
X155409Y61368D01*
X156116Y60661D01*
X156983Y60161D01*
X157949Y59902D01*
X158949D01*
X159915Y60161D01*
X160782Y60661D01*
X161489Y61368D01*
X161989Y62235D01*
X162248Y63201D01*
Y64201D01*
X161989Y65167D01*
X161489Y66034D01*
X160782Y66741D01*
X159915Y67241D01*
X158949Y67500D01*
D02*
G37*
G36*
X148949D02*
X147949D01*
X146983Y67241D01*
X146116Y66741D01*
X145409Y66034D01*
X144909Y65167D01*
X144650Y64201D01*
Y63201D01*
X144909Y62235D01*
X145409Y61368D01*
X146116Y60661D01*
X146983Y60161D01*
X147949Y59902D01*
X148949D01*
X149915Y60161D01*
X150782Y60661D01*
X151489Y61368D01*
X151989Y62235D01*
X152248Y63201D01*
Y64201D01*
X151989Y65167D01*
X151489Y66034D01*
X150782Y66741D01*
X149915Y67241D01*
X148949Y67500D01*
D02*
G37*
G36*
X48689Y67500D02*
X47689D01*
X46723Y67241D01*
X45856Y66741D01*
X45149Y66034D01*
X44649Y65167D01*
X44390Y64201D01*
Y63201D01*
X44649Y62234D01*
X45149Y61368D01*
X45856Y60661D01*
X46723Y60160D01*
X47689Y59902D01*
X48689D01*
X49655Y60160D01*
X50522Y60661D01*
X51229Y61368D01*
X51729Y62234D01*
X51988Y63201D01*
Y64201D01*
X51729Y65167D01*
X51229Y66034D01*
X50522Y66741D01*
X49655Y67241D01*
X48689Y67500D01*
D02*
G37*
G36*
X38689D02*
X37689D01*
X36723Y67241D01*
X35856Y66741D01*
X35149Y66034D01*
X34649Y65167D01*
X34390Y64201D01*
Y63201D01*
X34649Y62234D01*
X35149Y61368D01*
X35856Y60661D01*
X36723Y60160D01*
X37689Y59902D01*
X38689D01*
X39655Y60160D01*
X40522Y60661D01*
X41229Y61368D01*
X41729Y62234D01*
X41988Y63201D01*
Y64201D01*
X41729Y65167D01*
X41229Y66034D01*
X40522Y66741D01*
X39655Y67241D01*
X38689Y67500D01*
D02*
G37*
G36*
X76988Y57520D02*
X74319D01*
Y53650D01*
X76988D01*
Y57520D01*
D02*
G37*
G36*
X72835Y59539D02*
X70669D01*
X68504D01*
Y57480D01*
X70649D01*
Y53650D01*
X73319D01*
Y57520D01*
X72835D01*
Y59539D01*
D02*
G37*
G36*
X158949Y57500D02*
X157949D01*
X156983Y57241D01*
X156116Y56741D01*
X155409Y56034D01*
X154909Y55167D01*
X154650Y54201D01*
Y53201D01*
X154909Y52235D01*
X155409Y51368D01*
X156116Y50661D01*
X156983Y50161D01*
X157949Y49902D01*
X158949D01*
X159915Y50161D01*
X160782Y50661D01*
X161489Y51368D01*
X161989Y52235D01*
X162248Y53201D01*
Y54201D01*
X161989Y55167D01*
X161489Y56034D01*
X160782Y56741D01*
X159915Y57241D01*
X158949Y57500D01*
D02*
G37*
G36*
X148949D02*
X147949D01*
X146983Y57241D01*
X146116Y56741D01*
X145409Y56034D01*
X144909Y55167D01*
X144650Y54201D01*
Y53201D01*
X144909Y52235D01*
X145409Y51368D01*
X146116Y50661D01*
X146983Y50161D01*
X147949Y49902D01*
X148949D01*
X149915Y50161D01*
X150782Y50661D01*
X151489Y51368D01*
X151989Y52235D01*
X152248Y53201D01*
Y54201D01*
X151989Y55167D01*
X151489Y56034D01*
X150782Y56741D01*
X149915Y57241D01*
X148949Y57500D01*
D02*
G37*
G36*
X48689Y57500D02*
X47689D01*
X46723Y57241D01*
X45856Y56741D01*
X45149Y56034D01*
X44649Y55167D01*
X44390Y54201D01*
Y53201D01*
X44649Y52234D01*
X45149Y51368D01*
X45856Y50661D01*
X46723Y50160D01*
X47689Y49902D01*
X48689D01*
X49655Y50160D01*
X50522Y50661D01*
X51229Y51368D01*
X51729Y52234D01*
X51988Y53201D01*
Y54201D01*
X51729Y55167D01*
X51229Y56034D01*
X50522Y56741D01*
X49655Y57241D01*
X48689Y57500D01*
D02*
G37*
G36*
X38689D02*
X37689D01*
X36723Y57241D01*
X35856Y56741D01*
X35149Y56034D01*
X34649Y55167D01*
X34390Y54201D01*
Y53201D01*
X34649Y52234D01*
X35149Y51368D01*
X35856Y50661D01*
X36723Y50160D01*
X37689Y49902D01*
X38689D01*
X39655Y50160D01*
X40522Y50661D01*
X41229Y51368D01*
X41729Y52234D01*
X41988Y53201D01*
Y54201D01*
X41729Y55167D01*
X41229Y56034D01*
X40522Y56741D01*
X39655Y57241D01*
X38689Y57500D01*
D02*
G37*
G36*
X76988Y52650D02*
X73819D01*
X70649D01*
Y48965D01*
X70649Y48465D01*
X70649Y48280D01*
Y44594D01*
X73819D01*
X76988D01*
Y48280D01*
X76988Y48779D01*
X76988Y48965D01*
Y52650D01*
D02*
G37*
G36*
X158949Y47500D02*
X157949D01*
X156983Y47241D01*
X156116Y46741D01*
X155409Y46034D01*
X154909Y45167D01*
X154650Y44201D01*
Y43201D01*
X154909Y42235D01*
X155409Y41368D01*
X156116Y40661D01*
X156983Y40161D01*
X157949Y39902D01*
X158949D01*
X159915Y40161D01*
X160782Y40661D01*
X161489Y41368D01*
X161989Y42235D01*
X162248Y43201D01*
Y44201D01*
X161989Y45167D01*
X161489Y46034D01*
X160782Y46741D01*
X159915Y47241D01*
X158949Y47500D01*
D02*
G37*
G36*
X148949D02*
X147949D01*
X146983Y47241D01*
X146116Y46741D01*
X145409Y46034D01*
X144909Y45167D01*
X144650Y44201D01*
Y43201D01*
X144909Y42235D01*
X145409Y41368D01*
X146116Y40661D01*
X146983Y40161D01*
X147949Y39902D01*
X148949D01*
X149915Y40161D01*
X150782Y40661D01*
X151489Y41368D01*
X151989Y42235D01*
X152248Y43201D01*
Y44201D01*
X151989Y45167D01*
X151489Y46034D01*
X150782Y46741D01*
X149915Y47241D01*
X148949Y47500D01*
D02*
G37*
G36*
X48689Y47500D02*
X47689D01*
X46723Y47241D01*
X45856Y46741D01*
X45149Y46034D01*
X44649Y45167D01*
X44390Y44201D01*
Y43201D01*
X44649Y42234D01*
X45149Y41368D01*
X45856Y40661D01*
X46723Y40161D01*
X47689Y39902D01*
X48689D01*
X49655Y40161D01*
X50522Y40661D01*
X51229Y41368D01*
X51729Y42234D01*
X51988Y43201D01*
Y44201D01*
X51729Y45167D01*
X51229Y46034D01*
X50522Y46741D01*
X49655Y47241D01*
X48689Y47500D01*
D02*
G37*
G36*
X38689D02*
X37689D01*
X36723Y47241D01*
X35856Y46741D01*
X35149Y46034D01*
X34649Y45167D01*
X34390Y44201D01*
Y43201D01*
X34649Y42234D01*
X35149Y41368D01*
X35856Y40661D01*
X36723Y40161D01*
X37689Y39902D01*
X38689D01*
X39655Y40161D01*
X40522Y40661D01*
X41229Y41368D01*
X41729Y42234D01*
X41988Y43201D01*
Y44201D01*
X41729Y45167D01*
X41229Y46034D01*
X40522Y46741D01*
X39655Y47241D01*
X38689Y47500D01*
D02*
G37*
G36*
X76988Y43594D02*
X74319D01*
Y39724D01*
X76988D01*
Y43594D01*
D02*
G37*
G36*
X73319D02*
X70649D01*
Y39724D01*
X73319D01*
Y43594D01*
D02*
G37*
G36*
X158949Y37500D02*
X158949D01*
Y34201D01*
X162248D01*
Y34201D01*
X161989Y35167D01*
X161489Y36034D01*
X160782Y36741D01*
X159915Y37241D01*
X158949Y37500D01*
D02*
G37*
G36*
X148949D02*
X148949D01*
Y34201D01*
X152248D01*
Y34201D01*
X151989Y35167D01*
X151489Y36034D01*
X150782Y36741D01*
X149915Y37241D01*
X148949Y37500D01*
D02*
G37*
G36*
X157949D02*
X157949D01*
X156983Y37241D01*
X156116Y36741D01*
X155409Y36034D01*
X154909Y35167D01*
X154650Y34201D01*
Y34201D01*
X157949D01*
Y37500D01*
D02*
G37*
G36*
X147949D02*
X147949D01*
X146983Y37241D01*
X146116Y36741D01*
X145409Y36034D01*
X144909Y35167D01*
X144650Y34201D01*
Y34201D01*
X147949D01*
Y37500D01*
D02*
G37*
G36*
X48689Y37500D02*
X48689D01*
Y34201D01*
X51988D01*
Y34201D01*
X51729Y35167D01*
X51229Y36034D01*
X50522Y36741D01*
X49655Y37241D01*
X48689Y37500D01*
D02*
G37*
G36*
X38689D02*
X38689D01*
Y34201D01*
X41988D01*
Y34201D01*
X41729Y35167D01*
X41229Y36034D01*
X40522Y36741D01*
X39655Y37241D01*
X38689Y37500D01*
D02*
G37*
G36*
X47689D02*
X47689D01*
X46723Y37241D01*
X45856Y36741D01*
X45149Y36034D01*
X44649Y35167D01*
X44390Y34201D01*
Y34201D01*
X47689D01*
Y37500D01*
D02*
G37*
G36*
X37689D02*
X37689D01*
X36723Y37241D01*
X35856Y36741D01*
X35149Y36034D01*
X34649Y35167D01*
X34390Y34201D01*
Y34201D01*
X37689D01*
Y37500D01*
D02*
G37*
G36*
X73622Y32283D02*
X71760D01*
Y30421D01*
X73622D01*
Y32283D01*
D02*
G37*
G36*
X70760D02*
X68898D01*
Y30421D01*
X70760D01*
Y32283D01*
D02*
G37*
G36*
X162248Y33201D02*
X158949D01*
Y29902D01*
X158949D01*
X159915Y30161D01*
X160782Y30661D01*
X161489Y31368D01*
X161989Y32235D01*
X162248Y33201D01*
Y33201D01*
D02*
G37*
G36*
X157949D02*
X154650D01*
Y33201D01*
X154909Y32235D01*
X155409Y31368D01*
X156116Y30661D01*
X156983Y30161D01*
X157949Y29902D01*
X157949D01*
Y33201D01*
D02*
G37*
G36*
X152248D02*
X148949D01*
Y29902D01*
X148949D01*
X149915Y30161D01*
X150782Y30661D01*
X151489Y31368D01*
X151989Y32235D01*
X152248Y33201D01*
Y33201D01*
D02*
G37*
G36*
X147949D02*
X144650D01*
Y33201D01*
X144909Y32235D01*
X145409Y31368D01*
X146116Y30661D01*
X146983Y30161D01*
X147949Y29902D01*
X147949D01*
Y33201D01*
D02*
G37*
G36*
X51988Y33201D02*
X48689D01*
Y29902D01*
X48689D01*
X49655Y30160D01*
X50522Y30661D01*
X51229Y31368D01*
X51729Y32234D01*
X51988Y33201D01*
Y33201D01*
D02*
G37*
G36*
X47689D02*
X44390D01*
Y33201D01*
X44649Y32234D01*
X45149Y31368D01*
X45856Y30661D01*
X46723Y30160D01*
X47689Y29902D01*
X47689D01*
Y33201D01*
D02*
G37*
G36*
X41988D02*
X38689D01*
Y29902D01*
X38689D01*
X39655Y30160D01*
X40522Y30661D01*
X41229Y31368D01*
X41729Y32234D01*
X41988Y33201D01*
Y33201D01*
D02*
G37*
G36*
X37689D02*
X34390D01*
Y33201D01*
X34649Y32234D01*
X35149Y31368D01*
X35856Y30661D01*
X36723Y30160D01*
X37689Y29902D01*
X37689D01*
Y33201D01*
D02*
G37*
G36*
X73622Y29421D02*
X71760D01*
Y27559D01*
X73622D01*
Y29421D01*
D02*
G37*
G36*
X70760D02*
X68898D01*
Y27559D01*
X70760D01*
Y29421D01*
D02*
G37*
G36*
X148949Y27500D02*
X147949D01*
X146983Y27241D01*
X146116Y26741D01*
X145409Y26034D01*
X144909Y25167D01*
X144650Y24201D01*
Y23201D01*
X144909Y22235D01*
X145409Y21368D01*
X146116Y20661D01*
X146983Y20161D01*
X147949Y19902D01*
X148949D01*
X149915Y20161D01*
X150782Y20661D01*
X151489Y21368D01*
X151989Y22235D01*
X152248Y23201D01*
Y24201D01*
X151989Y25167D01*
X151489Y26034D01*
X150782Y26741D01*
X149915Y27241D01*
X148949Y27500D01*
D02*
G37*
G36*
X7480Y163780D02*
X2756D01*
Y159055D01*
X3806D01*
Y153779D01*
X2756D01*
Y149055D01*
X3806D01*
Y143780D01*
X2756D01*
Y139055D01*
X3806D01*
Y133779D01*
X2756D01*
Y129055D01*
X3806D01*
Y123780D01*
X2756D01*
Y119055D01*
X3806D01*
Y113780D01*
X2756D01*
Y109055D01*
X3806D01*
Y103780D01*
X2756D01*
Y99055D01*
X3806D01*
Y93780D01*
X2756D01*
Y89055D01*
X3806D01*
Y29528D01*
X3906Y29025D01*
X4190Y28600D01*
X10017Y22773D01*
X10442Y22488D01*
X10945Y22388D01*
X34390D01*
Y19902D01*
X41988D01*
Y27500D01*
X34390D01*
Y25013D01*
X11489D01*
X6431Y30071D01*
Y89055D01*
X7480D01*
Y93780D01*
X6431D01*
Y99055D01*
X7480D01*
Y103780D01*
X6431D01*
Y109055D01*
X7480D01*
Y113780D01*
X6431D01*
Y119055D01*
X7480D01*
Y123780D01*
X6431D01*
Y129055D01*
X7480D01*
Y133779D01*
X6431D01*
Y139055D01*
X7480D01*
Y143780D01*
X6431D01*
Y149055D01*
X7480D01*
Y153779D01*
X6431D01*
Y159055D01*
X7480D01*
Y163780D01*
D02*
G37*
G36*
X94882Y209074D02*
X93118D01*
Y207567D01*
X96790D01*
X96736Y207835D01*
X96301Y208486D01*
X95650Y208921D01*
X94882Y209074D01*
D02*
G37*
G36*
X96790Y206567D02*
X93118D01*
Y205060D01*
X94882D01*
X95650Y205212D01*
X96301Y205648D01*
X96736Y206299D01*
X96790Y206567D01*
D02*
G37*
G36*
X121457Y219882D02*
X119398D01*
Y218216D01*
X121457D01*
Y219882D01*
D02*
G37*
G36*
X118398D02*
X116339D01*
Y218216D01*
X118398D01*
Y219882D01*
D02*
G37*
G36*
X121457Y217216D02*
X119398D01*
Y215551D01*
X121457D01*
Y217216D01*
D02*
G37*
G36*
X118398D02*
X116339D01*
Y215551D01*
X118398D01*
Y217216D01*
D02*
G37*
G36*
X113583Y219074D02*
X109055D01*
X108287Y218921D01*
X107636Y218486D01*
X107201Y217835D01*
X107048Y217067D01*
X107201Y216299D01*
X107636Y215648D01*
X108287Y215212D01*
X109055Y215060D01*
X113583D01*
X114351Y215212D01*
X115002Y215648D01*
X115437Y216299D01*
X115590Y217067D01*
X115437Y217835D01*
X115002Y218486D01*
X114351Y218921D01*
X113583Y219074D01*
D02*
G37*
G36*
X122244Y214961D02*
X117126D01*
Y213379D01*
X115073D01*
X115002Y213486D01*
X114351Y213921D01*
X113583Y214074D01*
X109055D01*
X108287Y213921D01*
X107636Y213486D01*
X107201Y212835D01*
X107048Y212067D01*
X107201Y211299D01*
X107636Y210648D01*
X108287Y210212D01*
X109055Y210060D01*
X113583D01*
X114351Y210212D01*
X115002Y210648D01*
X115073Y210754D01*
X117126D01*
Y209449D01*
X122244D01*
Y214961D01*
D02*
G37*
G36*
X68004Y205709D02*
X65748D01*
Y203650D01*
X68004D01*
Y205709D01*
D02*
G37*
G36*
X116732Y150917D02*
X114673D01*
Y148661D01*
X116732D01*
Y150917D01*
D02*
G37*
G36*
X113673D02*
X111614D01*
Y148661D01*
X113673D01*
Y150917D01*
D02*
G37*
G36*
X116732Y144173D02*
X114673D01*
Y141917D01*
X116732D01*
Y144173D01*
D02*
G37*
G36*
Y140917D02*
X114673D01*
Y138661D01*
X116732D01*
Y140917D01*
D02*
G37*
G36*
X113673D02*
X111614D01*
Y138661D01*
X113673D01*
Y140917D01*
D02*
G37*
G36*
X116732Y134173D02*
X114673D01*
Y131917D01*
X116732D01*
Y134173D01*
D02*
G37*
G36*
Y130917D02*
X114673D01*
Y128661D01*
X116732D01*
Y130917D01*
D02*
G37*
G36*
X113673D02*
X111614D01*
Y128661D01*
X113673D01*
Y130917D01*
D02*
G37*
G36*
X116732Y124173D02*
X114673D01*
Y121917D01*
X116732D01*
Y124173D01*
D02*
G37*
G36*
X113673D02*
X111614D01*
Y121917D01*
X113673D01*
Y124173D01*
D02*
G37*
G36*
X116732Y120917D02*
X114673D01*
Y118661D01*
X116732D01*
Y120917D01*
D02*
G37*
G36*
X113673D02*
X111614D01*
Y118661D01*
X113673D01*
Y120917D01*
D02*
G37*
G36*
X116732Y114173D02*
X114673D01*
Y111917D01*
X116732D01*
Y114173D01*
D02*
G37*
G36*
X113673D02*
X111614D01*
Y111917D01*
X113673D01*
Y114173D01*
D02*
G37*
G36*
X116732Y110917D02*
X114673D01*
Y108661D01*
X116732D01*
Y110917D01*
D02*
G37*
G36*
X113673D02*
X111614D01*
Y108661D01*
X113673D01*
Y110917D01*
D02*
G37*
%LPD*%
D11*
X120472Y85827D02*
Y101575D01*
X193307Y207480D02*
Y228740D01*
Y161024D02*
Y207480D01*
X175984Y211024D02*
X189764D01*
X193307Y207480D01*
Y228740D02*
Y254724D01*
X175984Y236221D02*
X185827D01*
X193307Y228740D01*
Y254724D02*
Y279134D01*
X186221Y261811D02*
X193307Y254724D01*
X175984Y261811D02*
X186221D01*
X175984Y287402D02*
X185039D01*
X193307Y279134D01*
Y102756D02*
Y161024D01*
Y30709D02*
Y102756D01*
X180709Y115354D02*
X193307Y102756D01*
X180709Y169685D02*
X181772Y168622D01*
X185709D01*
X193307Y161024D01*
X186299Y23701D02*
X193307Y30709D01*
X158449Y23701D02*
X186299D01*
X111024Y76378D02*
X120472Y85827D01*
X120866Y259843D02*
Y269685D01*
X119488Y271063D02*
X120866Y269685D01*
X106693Y271063D02*
X119488D01*
X65158Y76378D02*
X111024D01*
X65158Y64567D02*
Y76378D01*
X11417Y161417D02*
X18110D01*
X18110Y161417D01*
X11417Y151417D02*
X18110D01*
X18110Y151417D01*
X11417Y141417D02*
X18110D01*
X18110Y141418D01*
X11417Y131417D02*
X18110D01*
X11417Y121417D02*
X18110D01*
X11417Y111417D02*
X18110D01*
X11417Y101417D02*
X18110D01*
X11417Y91417D02*
X18110D01*
X94191Y271063D02*
X99213D01*
X2736Y207461D02*
X23622D01*
X62402Y41202D02*
Y53150D01*
X5118Y121417D02*
Y141418D01*
X80315Y129134D02*
X83071Y126378D01*
X5118Y141418D02*
Y161417D01*
X99410Y253543D02*
X114567D01*
Y274803D02*
Y283465D01*
X99213D02*
X108268D01*
X114567Y253543D02*
X118348D01*
X114567D02*
Y267323D01*
X99213Y265748D02*
Y271063D01*
X106693D01*
X46850Y228740D02*
X54528D01*
X44882Y226378D02*
X46850Y228346D01*
X43701Y225197D02*
X44882Y226378D01*
X5118Y29528D02*
Y91417D01*
Y29528D02*
X10945Y23701D01*
X38189D01*
X65158Y76378D02*
X70079Y81299D01*
Y81496D01*
X5118Y141417D02*
X5118Y141418D01*
Y111417D02*
Y121417D01*
Y101417D02*
Y111417D01*
Y91417D02*
Y101417D01*
X5118Y161417D02*
X5118Y161417D01*
X68852Y120482D02*
Y123758D01*
X69004Y123909D01*
X58323Y122496D02*
X58433Y122606D01*
X59293D02*
X59325Y122638D01*
X58433Y122606D02*
X59293D01*
X59325Y122638D02*
X60449D01*
X83071Y122835D02*
Y126378D01*
X15748Y225197D02*
X43701D01*
X118898Y189764D02*
X119117Y189983D01*
X121801D01*
X122020Y190202D01*
X118348Y253543D02*
X118742Y253150D01*
X118898D01*
X54528Y228740D02*
X58661Y224606D01*
Y224409D02*
Y224606D01*
X75787Y203150D02*
X83071D01*
X68504D02*
X75787D01*
X68307Y228346D02*
X68504D01*
X60236Y224409D02*
X64370D01*
X68307Y228346D01*
X46850D02*
Y228740D01*
X44882Y222461D02*
Y226378D01*
X3937Y225197D02*
X9843D01*
X15748D01*
X3937Y207087D02*
X4311Y207461D01*
X94882Y240354D02*
Y240551D01*
Y240354D02*
X106039Y229198D01*
Y228607D02*
Y229198D01*
Y228607D02*
X106299Y228346D01*
X111319Y222067D02*
X115728D01*
X109529Y222696D02*
X110158Y222067D01*
X109529Y222696D02*
Y225117D01*
X106299Y228346D02*
X109529Y225117D01*
X110158Y222067D02*
X111319D01*
X88189Y127559D02*
X88386Y127362D01*
Y123031D02*
X88583Y122835D01*
X88386Y123031D02*
Y127362D01*
X60449Y122638D02*
X61721Y123909D01*
X83071Y117906D02*
Y122835D01*
Y126378D02*
Y127559D01*
X99213Y253346D02*
X99410Y253543D01*
X111319Y207067D02*
X115768D01*
X116929Y205905D02*
X119685D01*
X115768Y207067D02*
X116929Y205905D01*
X111319Y212067D02*
X119547D01*
X119685Y212205D01*
X65158Y59646D02*
Y60039D01*
X60900Y31200D02*
X62179Y29921D01*
X63159Y53906D02*
Y57646D01*
X65158Y60039D02*
Y64567D01*
X62402Y53150D02*
X63159Y53906D01*
Y57646D02*
X65158Y59646D01*
X48189Y23701D02*
X55958D01*
X62179Y29921D01*
X80315Y129134D02*
Y140157D01*
X76484Y143988D02*
X80315Y140157D01*
X76287Y143988D02*
X76484D01*
X69004D02*
X76287D01*
X61721D02*
X69004D01*
X102776Y194882D02*
X103129D01*
X83071D02*
X102776D01*
X103129D02*
X109408Y188602D01*
X111319D01*
X119291Y223622D02*
Y226378D01*
X118898Y223228D02*
X119291Y223622D01*
X105906Y300000D02*
Y333071D01*
X99213Y293307D02*
X105906Y300000D01*
X69689Y265492D02*
X75059D01*
X77953Y262598D01*
X75787Y188583D02*
X75984D01*
X79134Y191732D01*
X95276D01*
X97638Y189370D01*
Y186358D02*
Y189370D01*
X94882Y183602D02*
X97638Y186358D01*
X92618Y183602D02*
X94882D01*
X68504Y175984D02*
X68701D01*
X71768Y172917D01*
X85576D01*
X91261Y178602D01*
X92618D01*
X68504Y209449D02*
X68701D01*
X71850Y206299D01*
X85989D01*
X90773Y212067D01*
X92618D01*
X69689Y260492D02*
X71400D01*
X73992Y257900D01*
X87483D01*
X88583Y256800D01*
Y254724D02*
Y256800D01*
X62179Y29921D02*
X64173D01*
X60900Y31200D02*
Y39700D01*
X62402Y41202D01*
X64173Y36220D02*
X71260D01*
X45302Y270492D02*
X49997D01*
X40400Y275394D02*
X45302Y270492D01*
X35827Y275394D02*
X40400D01*
X31497D02*
X35827D01*
X31300Y275197D02*
X31497Y275394D01*
X27165Y275197D02*
X31300D01*
X42859Y265492D02*
X49997D01*
X42800Y265551D02*
X42859Y265492D01*
X35827Y265551D02*
X42800D01*
X31497D02*
X35827D01*
X31300Y265748D02*
X31497Y265551D01*
X27165Y265748D02*
X31300D01*
X75768Y254724D02*
X81102D01*
X75000Y255492D02*
X75768Y254724D01*
X69689Y255492D02*
X75000D01*
X99213Y283465D02*
Y293307D01*
X93600Y270472D02*
X94191Y271063D01*
X88583Y270472D02*
X93600D01*
X75920D02*
X82283D01*
X75900Y270492D02*
X75920Y270472D01*
X69689Y270492D02*
X75900D01*
X115113Y189764D02*
X118898D01*
X113951Y188602D02*
X115113Y189764D01*
X111319Y188602D02*
X113951D01*
X118020Y222350D02*
X118898Y223228D01*
X116011Y222350D02*
X118020D01*
X115728Y222067D02*
X116011Y222350D01*
X94882Y240551D02*
Y240748D01*
X111319Y178602D02*
X119547D01*
X119685Y178740D01*
X111319Y173602D02*
X118523D01*
X119685Y172441D01*
D15*
X24587Y91240D02*
X61713D01*
X24409Y131417D02*
X46929D01*
X38976Y141418D02*
X45197D01*
X24409D02*
X38976D01*
Y161417D02*
X51575D01*
X24409D02*
X38976D01*
Y101417D02*
X50551D01*
X61708Y93804D02*
X61713Y93799D01*
X50551Y101417D02*
X58165Y93804D01*
X61708D01*
X58429Y97073D02*
X58631D01*
X59346Y96358D01*
X48425Y107076D02*
X58429Y97073D01*
X48425Y107076D02*
Y107087D01*
X24409Y101417D02*
X38976D01*
Y111417D02*
X44094D01*
X24409D02*
X38976D01*
X44094D02*
X48425Y107087D01*
X59346Y96358D02*
X61713D01*
X58429Y99632D02*
X58632D01*
X49000Y109061D02*
Y118110D01*
Y109061D02*
X58429Y99632D01*
X38976Y121417D02*
X45693D01*
X24409D02*
X38976D01*
X58632Y99632D02*
X59346Y98917D01*
X61713D01*
X52862Y112876D02*
Y148319D01*
X51575Y111604D02*
X58429Y104750D01*
X50287Y110332D02*
X58429Y102191D01*
X50287Y110332D02*
Y128059D01*
X52862Y112876D02*
X58429Y107309D01*
X51575Y111604D02*
Y135039D01*
X45693Y121417D02*
X49000Y118110D01*
X46929Y131417D02*
X50287Y128059D01*
X58632Y102191D02*
X59346Y101476D01*
X58429Y102191D02*
X58632D01*
X59346Y101476D02*
X61713D01*
X58429Y104750D02*
X58632D01*
X45197Y141418D02*
X51575Y135039D01*
X49764Y151417D02*
X52862Y148319D01*
X54150Y114147D02*
Y158843D01*
X51575Y161417D02*
X54150Y158843D01*
Y114147D02*
X58429Y109868D01*
X58632Y104750D02*
X59346Y104035D01*
X61713D01*
X38976Y151417D02*
X49764D01*
X24409D02*
X38976D01*
X59346Y106594D02*
X61713D01*
X58631Y107309D02*
X59346Y106594D01*
X58429Y107309D02*
X58631D01*
X58429Y109868D02*
X58632D01*
X59346Y109154D01*
X61713D01*
X24409Y91417D02*
X24587Y91240D01*
X76287Y130209D02*
Y137689D01*
X39232Y260492D02*
X49997D01*
X36614Y257874D02*
X39232Y260492D01*
X72835Y126756D02*
X74569Y128490D01*
X72835Y119685D02*
Y126756D01*
X69980Y116831D02*
X72835Y119685D01*
X74569Y128490D02*
Y128687D01*
X76091Y130209D02*
X76287D01*
X74569Y128687D02*
X76091Y130209D01*
X61713Y116831D02*
X69980D01*
X19484Y219729D02*
X21752Y217461D01*
X18146Y221707D02*
X19484Y220369D01*
X21752Y217461D02*
X23622D01*
X19484Y219729D02*
Y220369D01*
X20141Y215242D02*
X27103D01*
X15748Y216142D02*
X19242D01*
X20141Y215242D01*
X21752Y212461D02*
X23622D01*
X19868Y210577D02*
X21752Y212461D01*
X6943Y210577D02*
X19868D01*
X51319Y217461D02*
X52362Y218504D01*
X44882Y217461D02*
X51319D01*
X52362Y218504D02*
Y224409D01*
X23622Y222461D02*
X25492D01*
X26423Y220359D02*
Y221530D01*
X25492Y222461D02*
X26423Y221530D01*
X52224Y212461D02*
X52362Y212598D01*
X44882Y212461D02*
X52224D01*
X9843Y213386D02*
Y218898D01*
X10039D01*
X15748Y216142D02*
Y218898D01*
X3937Y213386D02*
Y218898D01*
X4134Y213386D02*
X6943Y210577D01*
X3937Y213386D02*
X4134D01*
X10039Y218898D02*
X12848Y221707D01*
X15748Y213386D02*
Y216142D01*
X26423Y220359D02*
X27711Y219071D01*
Y215850D02*
Y219071D01*
X27103Y215242D02*
X27711Y215850D01*
X44882Y207461D02*
X51594D01*
X52362Y206693D01*
X12848Y221707D02*
X18146D01*
D16*
X74803Y229331D02*
Y240551D01*
Y229331D02*
X75787Y228346D01*
X83071D02*
X99606D01*
X75787D02*
X83071D01*
X68504D02*
X75787D01*
X102776Y194882D02*
X109055Y188602D01*
X75787Y194882D02*
X83071D01*
X68504D02*
X75787D01*
D17*
X137008Y122441D02*
Y135433D01*
X137106Y135531D02*
Y140650D01*
X137008Y135433D02*
X137106Y135531D01*
Y140650D02*
X138583Y142126D01*
X145276Y141339D02*
Y141535D01*
X137008Y147638D02*
X139370Y145276D01*
X137008Y147638D02*
Y161024D01*
X139370Y145276D02*
X141339D01*
X135433Y120866D02*
X137008Y122441D01*
X135433Y106693D02*
Y120866D01*
X133858Y105118D02*
X135433Y106693D01*
X135047Y123827D02*
Y165347D01*
X131693Y120473D02*
X135047Y123827D01*
X131693Y117126D02*
Y120473D01*
X128839Y171555D02*
X135047Y165347D01*
X143799Y143012D02*
X145276Y141535D01*
X143602Y143012D02*
X143799D01*
X141339Y145276D02*
X143602Y143012D01*
X131496Y116929D02*
X131693Y117126D01*
X137008Y161024D02*
X145669Y169685D01*
X150787D01*
X140256Y156890D02*
X155689D01*
X142562Y153937D02*
X156633D01*
X138908Y152897D02*
X141523Y155512D01*
X138878Y158268D02*
X155118D01*
X139019Y150394D02*
X142562Y153937D01*
X141523Y155512D02*
X156260D01*
X138878Y150394D02*
X139019D01*
X138878Y152897D02*
X138908D01*
X138878Y155512D02*
X140256Y156890D01*
X111575Y105118D02*
X127165D01*
X107874Y101614D02*
X109350Y103090D01*
X107874Y101417D02*
Y101614D01*
X109350Y103090D02*
X109547D01*
X111575Y105118D01*
X143307Y87402D02*
Y87598D01*
X150787Y95079D01*
Y115354D01*
X133858Y86614D02*
X136221D01*
X137008Y87402D01*
X100000Y161417D02*
X107874D01*
X107874Y161417D01*
X100000Y151417D02*
X107874D01*
X107874Y151417D01*
X107874Y141417D02*
X107874Y141417D01*
X100000Y141417D02*
X107874D01*
Y131417D02*
X107874Y131417D01*
X100000Y131417D02*
X107874D01*
X102404Y125484D02*
X102670D01*
X103170Y125984D02*
X103171D01*
X102670Y125484D02*
X103170Y125984D01*
X103171D02*
X125197D01*
X102670Y125484D02*
X102671D01*
X103171Y125984D01*
X100000Y121417D02*
X107874D01*
X107874Y121417D01*
X100000Y111417D02*
X107874D01*
X107874Y111417D01*
X100000Y101417D02*
X107874D01*
X107874Y101417D01*
X100000Y91417D02*
X107874D01*
X107874Y91417D01*
X130315Y81102D02*
Y112445D01*
Y81102D02*
X134252Y77165D01*
X144985D01*
X134823Y78543D02*
X153607D01*
X131693Y81673D02*
Y116732D01*
Y81673D02*
X134823Y78543D01*
X144985Y77165D02*
X148449Y73701D01*
X153607Y78543D02*
X158449Y73701D01*
X128248Y114512D02*
X130315Y112445D01*
X131496Y116929D02*
X131693Y116732D01*
X128248Y119346D02*
X130315Y121413D01*
Y124606D01*
X131594Y125886D01*
X128248Y114512D02*
Y119346D01*
X125984Y184252D02*
Y200787D01*
X124692Y202756D02*
X125886Y201562D01*
Y200886D02*
X125984Y200787D01*
X125886Y200886D02*
Y201562D01*
X109449Y202756D02*
X124692D01*
X127559Y176137D02*
Y178740D01*
X127362Y200295D02*
Y200787D01*
Y180118D02*
Y200295D01*
Y200787D02*
Y202012D01*
X125984Y178740D02*
X127362Y180118D01*
Y200295D02*
X127854Y200787D01*
X127362Y202012D02*
X129134Y203784D01*
X123749Y200787D02*
X124016D01*
X125984D02*
Y205905D01*
X122835Y181102D02*
X125984Y184252D01*
X107579Y198917D02*
X109843Y201181D01*
X123356D01*
X123749Y200787D01*
X60551Y198917D02*
X107579D01*
X129134Y203784D02*
Y208858D01*
X125984Y212205D02*
Y222887D01*
Y212008D02*
Y212205D01*
Y212008D02*
X129134Y208858D01*
X128839Y171555D02*
Y174858D01*
X127559Y176137D02*
X128839Y174858D01*
X133669Y128157D02*
Y164559D01*
X125984Y172244D02*
Y172441D01*
Y172244D02*
X133669Y164559D01*
X156633Y153937D02*
X163779Y161083D01*
X155118Y158268D02*
X159449Y162598D01*
X156260Y155512D02*
X162205Y161457D01*
X155689Y156890D02*
X160827Y162028D01*
X125106Y146063D02*
X131799Y152756D01*
X112520Y146063D02*
X125106D01*
X118413Y136614D02*
X131799Y150000D01*
X113071Y136614D02*
X118413D01*
X107874Y131614D02*
X109350Y133090D01*
X109547D01*
X113071Y136614D01*
X107874Y131417D02*
Y131614D01*
X163779Y161083D02*
Y222835D01*
X167717Y226772D01*
X175984D01*
X131496Y126181D02*
X132972Y127657D01*
X133169D02*
X133669Y128157D01*
X160827Y274606D02*
X163779Y277559D01*
X160827Y162028D02*
Y274606D01*
X159449Y162598D02*
Y297638D01*
X131496Y125984D02*
Y126181D01*
X159449Y297638D02*
X164961Y303150D01*
X132972Y127657D02*
X133169D01*
X162205Y161457D02*
Y247638D01*
X166535Y251969D01*
X175984D01*
X109350Y143090D02*
X109547D01*
X107874Y141417D02*
Y141614D01*
X109350Y143090D01*
X109547D02*
X112520Y146063D01*
X175984Y277559D02*
X175984Y277559D01*
X163779Y277559D02*
X175984D01*
X111023Y158268D02*
X131693D01*
X111969Y155512D02*
X131799D01*
X107874Y151417D02*
Y151614D01*
X109350Y153090D01*
X109547D01*
X111969Y155512D01*
X107874Y161220D02*
X109350Y159744D01*
X107874Y161220D02*
Y161417D01*
X109350Y159744D02*
X109547D01*
X111023Y158268D01*
X164961Y303150D02*
X175984D01*
X122835Y175787D02*
Y181102D01*
X125984Y172441D02*
Y172638D01*
X122835Y175787D02*
X125984Y172638D01*
X118110Y116929D02*
X124803D01*
X102756D02*
X118110D01*
X58661Y202756D02*
X61122Y200295D01*
X55807Y203662D02*
X60551Y198917D01*
X61122Y200295D02*
X106988D01*
X81201Y114272D02*
X84744D01*
X81201Y111713D02*
X84744D01*
X55709Y123169D02*
X60437Y127897D01*
X55709Y115083D02*
X58410Y112382D01*
X55709Y115083D02*
Y123169D01*
X57087Y116264D02*
X59055Y114296D01*
X57087Y118110D02*
X58268Y119291D01*
X57087Y116264D02*
Y118110D01*
X58410Y112382D02*
X58701D01*
X59371Y111713D01*
X61713D01*
X58268Y119291D02*
X62374D01*
X64772Y121689D01*
X60437Y127897D02*
Y128925D01*
X61721Y130209D01*
X79626Y109154D02*
X84311D01*
X76378Y105906D02*
X79626Y109154D01*
X76378Y81496D02*
Y105906D01*
X64772Y121689D02*
Y125976D01*
X67331Y128535D02*
Y128732D01*
X64772Y125976D02*
X67331Y128535D01*
X68807Y130209D02*
X69004D01*
X67331Y128732D02*
X68807Y130209D01*
X117768Y231102D02*
X125984Y222887D01*
X88583Y240748D02*
X91008Y243173D01*
X91437Y243602D02*
X98524D01*
X111024Y231102D01*
X91008Y243173D02*
X91437Y243602D01*
X111024Y231102D02*
X117768D01*
X58661Y202756D02*
Y206693D01*
X55807Y209547D02*
X58661Y212402D01*
X55807Y203662D02*
Y209547D01*
X58661Y212402D02*
Y212598D01*
X68504Y209449D02*
Y222047D01*
X106988Y200295D02*
X109449Y202756D01*
X104035Y208169D02*
X109449Y202756D01*
X98425Y233465D02*
X104035Y227854D01*
Y208169D02*
Y227854D01*
X87008Y233465D02*
X98425D01*
X81102Y240551D02*
X82579Y239075D01*
Y237894D02*
Y239075D01*
Y237894D02*
X87008Y233465D01*
X81102Y240551D02*
Y248425D01*
X91949Y91417D02*
X100000D01*
X86220Y88287D02*
X87303Y89370D01*
X89901D02*
X91949Y91417D01*
X84744Y88287D02*
X86220D01*
X87303Y89370D02*
X89901D01*
X89823Y91240D02*
X100000Y101417D01*
X84744Y91240D02*
X89823D01*
X90256Y93799D02*
X94882Y98425D01*
Y102285D01*
X84744Y93799D02*
X90256D01*
X94882Y102285D02*
X99979Y107382D01*
X87653Y96850D02*
X93504Y102701D01*
Y103312D01*
X99979Y107382D02*
Y111397D01*
X100000Y111417D01*
X85236Y96850D02*
X87653D01*
X93504Y103312D02*
X95768Y105575D01*
X85236Y99409D02*
X87653D01*
X93883Y105640D02*
Y113254D01*
X95768Y105575D02*
Y113170D01*
X84744Y96358D02*
X85236Y96850D01*
X92126Y103882D02*
X93883Y105640D01*
X87653Y99409D02*
X92126Y103882D01*
X99979Y117382D02*
Y121397D01*
X95768Y113170D02*
X99979Y117382D01*
Y121397D02*
X100000Y121417D01*
X94263Y115582D02*
Y135680D01*
X95641Y115011D02*
Y127058D01*
X93883Y113254D02*
X95641Y115011D01*
X90354Y113622D02*
X92885Y116153D01*
X91507Y116723D02*
Y152924D01*
X91732Y106048D02*
Y113052D01*
X90354Y106862D02*
Y113622D01*
X88976Y107433D02*
Y114193D01*
X91732Y113052D02*
X94263Y115582D01*
X92885Y116153D02*
Y144302D01*
X88976Y114193D02*
X91507Y116723D01*
X85236Y104528D02*
X88020D01*
X87653Y101969D02*
X91732Y106048D01*
X88630Y107087D02*
X88976Y107433D01*
X85236Y107087D02*
X88630D01*
X88020Y104528D02*
X90354Y106862D01*
X81102Y111811D02*
X81201Y111713D01*
X81102Y114173D02*
X81201Y114272D01*
X91507Y152924D02*
X100000Y161417D01*
X92885Y144302D02*
X100000Y151417D01*
X94263Y135680D02*
X100000Y141417D01*
X95641Y127058D02*
X100000Y131417D01*
X84744Y106594D02*
X85236Y107087D01*
X84744Y104035D02*
X85236Y104528D01*
Y101969D02*
X87653D01*
X84744Y101476D02*
X85236Y101969D01*
X84744Y98917D02*
X85236Y99409D01*
X61721Y130209D02*
Y137689D01*
X69004Y130209D02*
Y137689D01*
X88583Y240551D02*
Y240748D01*
Y248425D01*
X75787Y209449D02*
Y222047D01*
X75984D01*
X79134Y225197D01*
X95254D01*
X97638Y222813D01*
Y219823D02*
Y222813D01*
X94882Y217067D02*
X97638Y219823D01*
X92618Y217067D02*
X94882D01*
X83071Y175984D02*
Y188583D01*
X83091Y188602D01*
X92618D01*
X83071Y209449D02*
Y222047D01*
X83091Y222067D01*
X92618D01*
X75787Y175984D02*
Y188583D01*
X68504Y175984D02*
Y188583D01*
D20*
X143307Y87402D02*
D03*
X137008D02*
D03*
X144882Y142126D02*
D03*
X138583D02*
D03*
X76378Y81496D02*
D03*
X70079D02*
D03*
X131102Y116929D02*
D03*
X124803D02*
D03*
X114173Y151417D02*
D03*
X107874D02*
D03*
X114173Y141417D02*
D03*
X107874D02*
D03*
X114173Y91417D02*
D03*
X107874D02*
D03*
X114173Y101417D02*
D03*
X107874D02*
D03*
X114173Y111417D02*
D03*
X107874D02*
D03*
X114173Y121417D02*
D03*
X107874D02*
D03*
X114173Y161417D02*
D03*
X107874D02*
D03*
X114173Y131417D02*
D03*
X107874D02*
D03*
X114567Y283465D02*
D03*
X108268D02*
D03*
X82283Y270472D02*
D03*
X88583D02*
D03*
X52362Y206693D02*
D03*
X58661D02*
D03*
X52362Y212598D02*
D03*
X58661D02*
D03*
Y218504D02*
D03*
X52362D02*
D03*
Y224409D02*
D03*
X58661D02*
D03*
X18110Y161417D02*
D03*
X24409D02*
D03*
X18110Y141418D02*
D03*
X24409D02*
D03*
X18110Y151417D02*
D03*
X24409D02*
D03*
Y101417D02*
D03*
X18110D02*
D03*
X24409Y111417D02*
D03*
X18110D02*
D03*
Y131417D02*
D03*
X24409D02*
D03*
Y121417D02*
D03*
X18110D02*
D03*
X24409Y91417D02*
D03*
X18110D02*
D03*
X125197Y125984D02*
D03*
X131496D02*
D03*
X94882Y240551D02*
D03*
X88583D02*
D03*
X74803D02*
D03*
X81102D02*
D03*
X119685Y172441D02*
D03*
X125984D02*
D03*
X119685Y178740D02*
D03*
X125984D02*
D03*
X119685Y212205D02*
D03*
X125984D02*
D03*
X119685Y205905D02*
D03*
X125984D02*
D03*
D21*
X175984Y287402D02*
D03*
X149213D02*
D03*
X175984Y303150D02*
D03*
X149213D02*
D03*
X175984Y261811D02*
D03*
X149213D02*
D03*
X175984Y277559D02*
D03*
X149213D02*
D03*
X175984Y211024D02*
D03*
X149213D02*
D03*
X175984Y226772D02*
D03*
X149213D02*
D03*
Y251969D02*
D03*
X175984D02*
D03*
X149213Y236221D02*
D03*
X175984D02*
D03*
D22*
X21654Y333071D02*
D03*
D23*
X105906D02*
D03*
D24*
X49997Y270492D02*
D03*
D25*
Y265492D02*
D03*
Y260492D02*
D03*
Y255492D02*
D03*
X69689D02*
D03*
Y260492D02*
D03*
Y265492D02*
D03*
Y270492D02*
D03*
D26*
X35827Y275394D02*
D03*
Y265551D02*
D03*
D27*
X99213Y271063D02*
D03*
Y283465D02*
D03*
Y253346D02*
D03*
Y265748D02*
D03*
D28*
X111319Y207067D02*
D03*
Y212067D02*
D03*
Y217067D02*
D03*
Y222067D02*
D03*
X92618Y207067D02*
D03*
Y212067D02*
D03*
Y217067D02*
D03*
Y222067D02*
D03*
Y188602D02*
D03*
Y183602D02*
D03*
Y178602D02*
D03*
Y173602D02*
D03*
X111319Y188602D02*
D03*
Y183602D02*
D03*
Y178602D02*
D03*
Y173602D02*
D03*
D29*
X73819Y44094D02*
D03*
X62402D02*
D03*
Y53150D02*
D03*
X73819D02*
D03*
D30*
X11417Y111417D02*
D03*
X5118D02*
D03*
X5118Y141417D02*
D03*
X11417D02*
D03*
X5118Y151417D02*
D03*
X11417D02*
D03*
X5118Y161417D02*
D03*
X11417D02*
D03*
X11417Y101417D02*
D03*
X5118D02*
D03*
X11417Y91417D02*
D03*
X5118D02*
D03*
X5118Y131417D02*
D03*
X11417D02*
D03*
X11417Y121417D02*
D03*
X5118D02*
D03*
D31*
X46850Y228740D02*
D03*
X41339D02*
D03*
X88583Y122835D02*
D03*
X83071D02*
D03*
X27165Y275197D02*
D03*
X21654D02*
D03*
X27165Y265748D02*
D03*
X21654D02*
D03*
X65158Y64567D02*
D03*
X70669D02*
D03*
X65158Y60039D02*
D03*
X70669D02*
D03*
D32*
X44882Y222461D02*
D03*
Y217461D02*
D03*
Y212461D02*
D03*
Y207461D02*
D03*
X23622D02*
D03*
Y212461D02*
D03*
Y217461D02*
D03*
Y222461D02*
D03*
D34*
X61713Y116831D02*
D03*
Y114272D02*
D03*
Y111713D02*
D03*
Y109154D02*
D03*
Y106594D02*
D03*
Y104035D02*
D03*
Y101476D02*
D03*
Y98917D02*
D03*
Y96358D02*
D03*
Y93799D02*
D03*
Y91240D02*
D03*
Y88681D02*
D03*
X84311D02*
D03*
Y91240D02*
D03*
Y93799D02*
D03*
Y96358D02*
D03*
Y98917D02*
D03*
Y101476D02*
D03*
Y104035D02*
D03*
Y106594D02*
D03*
Y109154D02*
D03*
Y111713D02*
D03*
Y114272D02*
D03*
Y116831D02*
D03*
D35*
X3937Y207087D02*
D03*
Y213386D02*
D03*
X9843Y207087D02*
D03*
Y213386D02*
D03*
X15748Y207087D02*
D03*
Y213386D02*
D03*
X3937Y218898D02*
D03*
Y225197D02*
D03*
X9843Y218898D02*
D03*
Y225197D02*
D03*
X15748Y218898D02*
D03*
Y225197D02*
D03*
X61721Y123909D02*
D03*
Y130209D02*
D03*
X69004Y123909D02*
D03*
Y130209D02*
D03*
X76287Y123909D02*
D03*
Y130209D02*
D03*
Y137689D02*
D03*
Y143988D02*
D03*
X61721Y137689D02*
D03*
Y143988D02*
D03*
X69004Y137689D02*
D03*
Y143988D02*
D03*
X83071Y175984D02*
D03*
Y169685D02*
D03*
X75787D02*
D03*
Y175984D02*
D03*
X68504Y169685D02*
D03*
Y175984D02*
D03*
X75787Y188583D02*
D03*
Y194882D02*
D03*
X68504Y188583D02*
D03*
Y194882D02*
D03*
X83071Y188583D02*
D03*
Y194882D02*
D03*
Y222047D02*
D03*
Y228346D02*
D03*
X68504Y222047D02*
D03*
Y228346D02*
D03*
X75787Y222047D02*
D03*
Y228346D02*
D03*
X68504Y203150D02*
D03*
Y209449D02*
D03*
X75787Y203150D02*
D03*
Y209449D02*
D03*
X83071Y203150D02*
D03*
Y209449D02*
D03*
X81102Y254724D02*
D03*
Y248425D02*
D03*
X88583Y254724D02*
D03*
Y248425D02*
D03*
X64173Y29921D02*
D03*
Y36220D02*
D03*
D36*
X114567Y253543D02*
D03*
Y248031D02*
D03*
X118898Y189764D02*
D03*
Y184252D02*
D03*
Y223228D02*
D03*
Y217716D02*
D03*
D37*
X71260Y29921D02*
D03*
Y36220D02*
D03*
D55*
X99213Y293307D02*
D03*
X120866Y259843D02*
D03*
X36614Y257874D02*
D03*
X77953Y262598D02*
D03*
D56*
X114567Y274803D02*
D03*
Y267323D02*
D03*
X106693Y271063D02*
D03*
D57*
X180709Y169685D02*
D03*
X150787D02*
D03*
X180709Y115354D02*
D03*
X150787D02*
D03*
D58*
X148449Y73701D02*
D03*
Y63701D02*
D03*
Y53701D02*
D03*
Y43701D02*
D03*
Y33701D02*
D03*
Y23701D02*
D03*
X158449Y73701D02*
D03*
Y63701D02*
D03*
Y53701D02*
D03*
Y43701D02*
D03*
Y33701D02*
D03*
X38189Y33701D02*
D03*
Y43701D02*
D03*
Y53701D02*
D03*
Y63701D02*
D03*
Y73701D02*
D03*
X48189Y23701D02*
D03*
Y33701D02*
D03*
Y43701D02*
D03*
Y53701D02*
D03*
Y63701D02*
D03*
Y73701D02*
D03*
D59*
X158449Y23701D02*
D03*
X38189Y23701D02*
D03*
D60*
X100000Y161417D02*
D03*
Y151417D02*
D03*
Y131417D02*
D03*
Y111417D02*
D03*
Y101417D02*
D03*
Y121417D02*
D03*
Y141417D02*
D03*
X38976Y91417D02*
D03*
Y101417D02*
D03*
Y121417D02*
D03*
Y141417D02*
D03*
Y151417D02*
D03*
Y131417D02*
D03*
Y111417D02*
D03*
D61*
X100000Y91417D02*
D03*
X38976Y161417D02*
D03*
D62*
X124803Y110630D02*
D03*
X120472Y101575D02*
D03*
X21260Y270472D02*
D03*
X49606Y250000D02*
D03*
X85039Y159843D02*
D03*
Y136221D02*
D03*
X157480Y83858D02*
D03*
X43701Y81496D02*
D03*
X107087Y80315D02*
D03*
X94882Y79921D02*
D03*
X125197D02*
D03*
X122441Y131496D02*
D03*
X121260Y143307D02*
D03*
X103937Y146063D02*
D03*
X122020Y190202D02*
D03*
X123622Y217717D02*
D03*
X122673Y186058D02*
D03*
X118898Y253150D02*
D03*
X64961Y214173D02*
D03*
X37008Y228740D02*
D03*
X23622Y202756D02*
D03*
X99606Y228346D02*
D03*
X106299D02*
D03*
X83071Y127559D02*
D03*
X88189D02*
D03*
X76378Y115748D02*
D03*
X61417Y83858D02*
D03*
X98425Y173622D02*
D03*
X11024Y332677D02*
D03*
X21654Y322441D02*
D03*
X109843Y247638D02*
D03*
X99213Y207087D02*
D03*
X119291Y226378D02*
D03*
D63*
X138878Y158268D02*
D03*
Y155512D02*
D03*
Y150394D02*
D03*
Y152897D02*
D03*
X133858Y105118D02*
D03*
X127165D02*
D03*
X133858Y86614D02*
D03*
X102404Y125484D02*
D03*
X127854Y200787D02*
D03*
X124016D02*
D03*
X131799Y152756D02*
D03*
Y150000D02*
D03*
X131693Y158268D02*
D03*
X131799Y155512D02*
D03*
X68852Y120482D02*
D03*
X58323Y122496D02*
D03*
X78707Y41542D02*
D03*
X78740Y46063D02*
D03*
X78346Y56299D02*
D03*
Y51575D02*
D03*
X74803Y66142D02*
D03*
X75009Y61486D02*
D03*
X81102Y111811D02*
D03*
X102756Y116929D02*
D03*
X81102Y114173D02*
D03*
M02*
